question|guid|title|entry_id|question_id|iLearn|answer|evaluation code
"When the boat's engine died, it took him three hours to swim to {1} and get help.<br />They decided to pull down their old house and sell the {1} to a property developer.<br />I shall be waiting for you inside the terminal building when you {1} in Singapore."|1938-1|Cancelled Festival|1938|1|190|land|1
"There was quite a powerful earthquake in my city not {2} after I arrived in Japan.<br />After climbing the mounatin trail for six hours most tourists are ready for a {2} cold drink.<br />Electric cars have come a {2} way since they first appeared on our roads."|1938-2|Cancelled Festival|1938|2|190|long|1
"It seems that O'Reilly {3} a false name when he checked into the motel that night.<br />In the UK it is currently possible to buy a {3} car for one tenth the price of new one.<br />By the end of the century we will have {3} up all the Earth's fossil fuels."|1938-3|Cancelled Festival|1938|3|190|used|1
"It made me feel really {4} , being in the company of so many famous, talented people.<br />Before you sign any kind of agreement you should carefully read the {4} print to see what you are committing yourself to.<br />The new tax will be especially unpopular with {4} businesses with fewer than ten employees."|1938-4|Cancelled Festival|1938|4|190|small|1
"The smell of curry cooking in the kitchen made my {5} water.<br />I'm afraid I put my foot in my {5} again and told him about the surprise party.<br />The port city of Rotterdam is situated near the {5} of the River Rhine."|1938-5|Cancelled Festival|1938|5|190|mouth|1
