row_text,guid,title,entry_id,question_id,iLearn,evaluation code,answer,op_word,op_sentence
"It {1} to Janet to learn she had lost her job.",725-1,test - open cloze,725,1,8,4,came as|a shock*came as|a terrible shock,shock,"Janet was very unpleasantly surprised to learn she had lost her job."
"Martin's behaviour {2} odd.",725-2,test - open cloze,725,2,8,4,struck James|as*struck James|as being,struck,"James found Martin's behaviour unusual."
"I'm sorry. I {3} about your country.",725-3,test - open cloze,725,3,8,4,take back|the things I said*take back|what I said,take,"I didn't mean to say such nasty things about your country - I'm sorry."
"Only Michael's great ability  {4} the boat from sinking.",725-4,test - open cloze,725,4,8,4,to repair things|prevented*to make repairs|prevented*to do repairs|prevented*at repairing things|prevented,prevented,"If Michael hadn't been so good at repairing things, the boat would have sunk."
"If we all {5} we may just save the planet.",725-5,test - open cloze,725,5,8,4,cut down on|our energy use*cut down on|our energy usage*cut down on|our energy consumption,cut,"If we all use less energy, we may just save the planet."
"It was {6} the company that Veronique stopped loving her job.",725-6,test - open cloze,725,6,8,4,only after|Madelaine joined*only when|Madelaine joined*only after|Madelaine's arrival at,only,"Veronique loved her job before Madelaine joined the company."
"Don't worry. I {7} refuse to marry you.",725-7,test - open cloze,725,7,8,4,can't imagine|she will*couldn't imagine|she would*shouldn't imagine|she would,imagine,"Don't worry.  Of course she will agree to marry you."
"Whether or not we {8} my father's new boss.",725-8,test - open cloze,725,8,8,4,must move abroad|depends on*must move abroad|will depend on*have to move abroad|depends on*will move abroad|depends on*will move abroad|will depend on*need to move abroad|depends on,,"My father's new boss will decide whether or not we must move abroad."
"Marcel wants to go somewhere new on holiday but I  {1} back to the same place again.",659-1,another test item : keyword transformation,659,1,5,4,would|rather go*'d|rather go*would much|rather go*'d much|rather go,rather,"Marcel wants to go somewhere new on holiday but I want to go back to the same place again."
"I have  {2} whatever they want to do.",659-2,another test item : keyword transformation,659,2,5,4,no objection to|their doing*no objection to|them doing,objection,"I am happy to allow them to do whatever they want to do."
"Hilary thanked everybody {3} who couldn't attend the meeting.",659-3,another test item : keyword transformation,659,3,5,4,on behalf of|Janet,,behalf,"Janet couldn't attend the meeting, so Hilary thanked everybody in her place."
"You must  {4} the plane has come to a complete stop.",659-4,another test item : keyword transformation,659,4,5,4,not open your seatbelt|until*not undo your seatbelt|until*not unfasten your seatbelt|until,until,"You can only open your seatbelt when the plane has come to a complete stop."
"The company {5} over the course of the last year.",659-5,another test item : keyword transformation,659,5,5,4,has been increasingly|profitable*has been increasingly|successful*have been increasingly|profitable*have been increasingly|successful,increasingly,"The company profits have increased a lot over the course of the last year."
"Against {6} a complete success and she went to make a full recovery.",659-6,another test item : keyword transformation,659,6,5,4,all odds,|Marie's operation was,odds,"To everyone's surprise Marie survived the operation and made a complete recovery."
"It is {7} have pets nowadys.",659-7,another test item : keyword transformation,659,7,5,4,becoming|less common*becoming|more uncommon*getting|less commmon*getting|more uncommon,common,"Fewer and fewer families have pets nowadays."
"It  {8} whether we go to the cinema or a restaurant.",659-8,another test item : keyword transformation,659,8,5,4,makes no difference|to me*makes little difference|to me*doesn't make a difference|to me*doesn't make any difference|to me,difference,"We can go to the cinema or to a restaurant, I really don't mind."
"The interviewers will {1} that you have found out something about the company and the job.",723-1,test - gapped sentence,723,1,7,4,take it|for granted,granted,"The interviewers will assume that you have found out something about the company and the job."
"I am sure that {2} you will not solve the problem.",723-2,test - gapped sentence,723,2,7,4,however hard|you try*however much|you try,however,"You can try as hard as you want but I am sure you will not solve the problem."
"The doctor has two other people to see before you so {3} to fill in the forms.",723-3,test - gapped sentence,723,3,7,4,in the meantime|I advise you*in the meantime|I'd advise you,meantime,"The doctor has two other people to see before you, so I suggest you fill in the forms while you are waiting."
"You will have to  {4} if you want to pass the exam",723-4,test - gapped sentence,723,4,7,4,do a great deal|more studying*do a good deal|more studying,deal,"You will have to study much harder if you want to pass the exam."
"Running the half-marathon was {5} as Sally had imagined.",723-5,test - gapped sentence,723,5,7,4,nowhere near|as bad*nowhere near|as hard*nowhere near|as difficult,nowhere,"Running the half-marathon was not nearly as difficult as Sally had imagined."
"The causes of the failure have still {6} for legal reasons.",723-6,test - gapped sentence,723,6,7,4,to be fully|examined*got to be fully|examined,fully,"We still have to have a full examination of the causes of the failure for legal reasons."
"Entry to the system {7} five passwords.",723-7,test - gapped sentence,723,7,7,4,requires|no fewer than*needs|no fewer than,fewer,"There are at least five passwords to type before you can get into the system."
"He is now {8} the story.",723-8,test - gapped sentence,723,8,7,4,thought to have|made up*believed to have|made up*thought to have|dreamt up*believed to have|dreamt up,up,"Initially, everybody believed his story but now they think he was lying."
"Every day, Walter spends  {1} in front of the television.",727-1,test - word formation,727,1,10,4,too many hours|sitting*too much time|sitting,sitting,"Walter sits in front of the television for too many hours a day."
"Dogs are not the most  {2} in the UK",727-2,test - word formation,727,2,10,4,popular pet|any more*popular pet|any longer*common pet|any more*common pet|any longer*numerous pet|any more,any,"People in Britain used to have more dogs than any other pet."
"You really {3} to the police right away.",727-3,test - word formation,727,3,10,4,had better|report it,better,"It really would best if you reported it to the police right away."
"The manager {4} my shoes before I entered the restaurant.",727-4,test - word formation,727,4,10,4,insisted on|me taking off*insisted on|me removing*insisted on|my taking off*that I|take off*that I must|take off,insisted,"The manager told me I had to take off my shoes before I entered the restaurant."
"Our teacher told us to {5} the sunshine while the weather was nice.",727-5,test - word formation,727,5,10,4,make the most|of,most,"Our teacher told us to enjoy the sunshine as much as possible while the weather was nice."
"Every morning it's my job {6} the paper shop.",727-6,test - word formation,727,6,10,4,to fetch the newspapers|from*to fetch newspapers|from,fetch,"Every morning, I have to to go to the paper shop and collect the newspapers."
"If he hadn't got stuck in a traffic jam in the City Centre {7} late.",727-7,test - word formation,727,7,10,4,he wouldn't|have been*he wouldn't|have been so,been,"He was late because of a traffic jam in the City Centre."
"I think on {8} successful than women at learning languages.",727-8,test - word formation,727,8,10,4,the whole|men are less,whole,"I think generally, women are better than men at learning languages."
"The papers said that {1} the spectators were out of the stadium before the fire started.",764-1,standard multiple choice test,764,1,12,4,nearly|all*nearly|all of,worth,"The papers said that the vast majority of the spectators were out of the stadium before the fire started."
"We were {2} when our dinner guests arrived.",764-2,standard multiple choice test,764,2,12,4,still cleaning|the house,still,"I don't think they will stick to what we agreed in the contract."
"The papers said that {1} the spectators were out of the stadium before the fire started.",764-3,standard multiple choice test,764,3,12,4,high time|Jenny did,high,"Jenny really must do something about her appearance soon."
"Our {4} while we were on holiday.",764-4,standard multiple choice test,764,4,12,4,house was|broken into,nearly,"Somebody burgled our house while we were on holiday."
"Alison {5} to lose weight.",764-5,standard multiple choice test,764,5,12,4,suggested we|started running*suggested we|start running*suggested that we|started running*suggested that we|start running,suggested,"The papers said that the vast majority of the spectators were out of the stadium before the fire started."
"We were {2} when our dinner guests arrived.",764-6,standard multiple choice test,764,6,12,4,my opinion|she isn't*my opinion|she is not,opinion,"If you ask me, I don't think she is telling the truth."
"Jayne  {7} tennis to get fit.",764-7,standard multiple choice test,764,7,12,4,is taking|up*is planning on taking|up,still,"Jayne is going to start playing tennis to get fit."
"If we had known how few people were going to come,  {8} so much food.",764-8,standard multiple choice test,764,8,12,4,we wouldn't|have bought*we would not|have bought,have,"Our dinner guests arrived before we had finished cleaning the house."
"I'm sorry, but I {1} your name is.",1798-1,Stopping Smoking,1798,1,50,4,can't remember|what*don't remember|what,remember,"I'm afraid I've forgotten your name."
"This is the {2} a book by Salman Rushdie.",1798-2,Stopping Smoking,1798,2,50,4,first time|I have read*first time|I've read,time,"I have never read a book by Salman Rushdie before this one."
"It was a {3} that I couldn't see the famous waterfalls.",1798-3,Stopping Smoking,1798,3,50,4,big disappointment|to me*great disappointment|to me*huge disappointment|to me,me,"I was very disappointed that I couldn't see the famous waterfalls."
"For as long {4} I have been interested in fashion.",1798-4,Stopping Smoking,1798,4,50,4,as I can|remember,can,"Since my earliest memories, I have been interested in fashion."
"The two tennis players both {5} in the final round.",1798-5,Stopping Smoking,1798,5,50,4,gave a|brilliant performance*did a|brilliant performance,brilliant,"The two tennis players both performed brilliantly in the final round."
"I've {6} for this test.",1798-6,Stopping Smoking,1798,6,50,4,just been|revising*just finished|revising,just,"I finished revising for this test a few minutes ago."
"It was against {7} the England team won a match against Brazil.",1798-7,Stopping Smoking,1798,7,50,4,all|odds that*all the|odds that*the|odds that,odds,"It was a total surprise to everyone that the England team won a match against Brazil."
"I've {8} three months now.",1798-8,Stopping Smoking,1798,8,50,4,known Alex|for over*known Alex|over,over,"I first met Alex more than three months ago."
"Tom's efforts {1} by his teachers.",1797-1,Competition (conditionals),1797,1,49,4,did not|go unnoticed*didn't|go unnoticed,unnoticed,"Tom's teachers saw that he was putting a lot of effort into his studies."
"I'm {2} pink wallpaper.",1797-2,Competition (conditionals),1797,2,49,4,not really|keen on*not|keen on,keen,"Pink wallpaper is not really to my taste."
"I {3} last night.",1797-3,Competition (conditionals),1797,3,49,4,wish I had|studied harder,wish,"I regret not studying harder last night."
"I wish {4} their music.",1797-4,Competition (conditionals),1797,4,49,4,my neighbours|would turn down*my noisy neighbours|would turn down,would,"I want my noisy neighbours to turn down their music."
"If {5} I would have enough money to go to the cinema.",1797-5,Competition (conditionals),1797,5,49,4,I hadn't|bought these trousers*I had not|bought these trousers,bought,"I can't go to the cinema because I spent the money on these trousers."
"The film {6} hype.",1797-6,Competition (conditionals),1797,6,49,4,didn't|live up to*did not|live up to,live,"The film wasn't as good as everyone said it would be."
"If I had gone to secondary school in England {7} speak English fluently.",1797-7,Competition (conditionals),1797,7,49,4,I would|be able to*I'd|be able to,able,"People who go to secondary school in England can speak English fluently."
"A three-wheeled car  {8} rarity.",1797-8,Competition (conditionals),1797,8,49,4,is becoming|an increasing rarity*is|an increasing rarity*is becoming|a rarity,becoming,"There are fewer and fewer three-wheeled cars on the roads these days."
"Caroline accused {1} bag.",1796-1,Picnic,1796,1,48,4,Kerry of|taking her,taking,"'You took my bag, didn't you Kerry!' said Caroline"
"Under {2} smoke in the school.",1796-2,Picnic,1796,2,48,4,no circumstances|must you,must,"You really mustn't smoke in the school."
"Liz {3} CAE exam.",1796-3,Picnic,1796,3,48,4,congratulated Charlie|on passing his,congratulated,"'Well done for passing your CAE exam Charlie', said Liz"
"No {4} the phone rang and woke me up.",1796-4,Picnic,1796,4,48,4,sooner had I|fallen asleep than,sooner,"I had only just fallen asleep when the phone rang and woke me up."
"Julie {5} late",1796-5,Picnic,1796,5,48,4,apologised to Kate for|being,apologised,"'I'm so sorry I'm late Kate', said Julie"
"John {6} the exam answer sheet.",1796-6,Picnic,1796,6,48,4,denied|stealing*denied|having stolen,denied,"'The theft of the exam answer sheet wasn't down to me', said John"
"Only after {7} that I hadn't put a stamp on it.",1796-7,Picnic,1796,7,48,4,posting the letter|did I remember,did,"I only remembered that I hadn't put a stamp on the letter after I had posted it."
"Ben wasn't {8} on the left in England.",1796-8,Picnic,1796,8,48,4,used to|driving,driving,"'Driving on the left in England is really difficult for me', said Ben."
"The {1} only 30 minutes left.",1795-1,Take no notice,1795,1,47,4,floodgates opened|with*floodgates opened|when there were*floodgates opened|after 60 minutes with*floodgates opened|after sixty minutes with,floodgates,"They scored with 30 minutes remaining, and several more followed in quick succession. It was a crushing defeat."
"There is a {2} MPs misappropriating taxpayers' money.",1795-2,Take no notice,1795,2,47,4,public outcry|over,public,"Reports of MPs misappropriating taxpayers' money have enraged the electorate."
"We'll have to {3} whether their marriage will be successful or not.",1795-3,Take no notice,1795,3,47,4,wait|and see,see,"I've no idea whether their marriage will be succeessful. Only time will tell I suppose."
"I was completely skint, but {4} Sam paid back the £100 he owed me today.",1795-4,Take no notice,1795,4,47,4,as luck|would have it,have,"I was completely skint, but fortunately Sam paid back the £100 he owed me today."
"Julia and I have {5} share lifts to work from now on.",1795-5,Take no notice,1795,5,47,4,a reciprocal|arrangement to,arrangement,"Julia and I have agreed to share lifts to work from now on."
"I'm sick of hearing people talk about {6} Titanic. I've never been so bored in my whole life!",1795-6,Take no notice,1795,6,47,4,the so called|brilliance of*the so-called|brilliance of,so,"I'm sick of hearing people talk about how "
"Hopefully, the sunny weather will {7} for the next few months.",1795-7,Take no notice,1795,7,47,4,be the shape|of things to come,shape,"Hopefully the sunny weather will continue for the next few months."
"I hate the leader of that polictical party. He's a {8} , and does absolutely nothing worthwhile.",1795-8,Take no notice,1795,8,47,4,total waste|of space*complete waste|of space*waste|of space,waste,"I hate the leader of that polictical party. He has and will continue to achieve absolutely nothing of note."
"Mary,  {1} what would you do?",1794-1,Boring Movies,1794,1,46,4,supposing you|won the lottery,supposing,"Mary, what do you think you would do if you won the lottery?"
"If I were you,  {2} her about the situation.",1794-2,Boring Movies,1794,2,46,4,I would be|straight with,straight,"The best thing to do is to be honest with her about the situation."
"I don't like to {3} important things.",1794-3,Boring Movies,1794,3,46,4,make snap|decisions about*make snap|decisions on,snap,"I like to take my time to decide, not rush important things."
"If you  {4} could you give her this money.",1794-4,Boring Movies,1794,4,46,4,should happen|to see Mum,*happen|to see Mum,*should happen|to see Mum*happen|to see Mum,happen,"I know it is unlikely, but if you see Mum, could you give her this money."
"I can  {5} as a journalist.",1794-5,Boring Movies,1794,5,46,4,make a|good living*earn a|good living*make a|decent living*earn a|decent living,living,"In my job as a journalist, I can get money that is more than enough to live on."
"I would have made different arrangements, {6} about the situation.",1794-6,Boring Movies,1794,6,46,4,had I|been warned*if I had|been warned,had,"I would have made different arrangements, if I had been warned about the situation."
"Although I can see your point, {7} we don't have enough money to open a new branch.",1794-7,Boring Movies,1794,7,46,4,the bottom|line is,bottom,"Although I can see your point, the most important thing is that we don't have the money to open a new branch of the company."
"I can lend you ten pounds, {8} me the money next week.",1794-8,Boring Movies,1794,8,46,4,providing that|you give*providing|you give,providing,"I can lend you ten pounds, on the condition that you give me back the money next week, Shohei. "
"The pictures on the Internet {1} the clothes I ordered.",1793-1,Shopping,1793,1,45,4,gave a false|impression of,false,"When the clothes I ordered over the Internet arrived they looked nothing like the pictures."
"Buying a cheap car {2} economy.",1793-2,Shopping,1793,2,45,4,is a|false,is,"If you buy a cheap car you will have to spend more money replacing it soon."
"The customer {3} the salesman's patter.",1793-3,Shopping,1793,3,45,4,was taken|in by,taken,"The salesman deceived the customer with his sales talk."
"It only took  {4} to convince me not to buy the shirt.",1793-4,Shopping,1793,4,45,4,a glance|at the price*a glance|of the price*a quick glance|at the price*a quick glance|of the price,glance,"I decided not to buy the shirt after I glimpsed the price."
"The company {5} new advertising campaign.",1793-5,Shopping,1793,5,45,4,came up|with a,came,"The advertising department created a new advertising campaign for the company."
"Where can I {6} tickets for tonight's concert.",1793-6,Shopping,1793,6,45,4,get hold|of,hold,"Do you know where I can buy tickets for tonight's concert?"
"Paula {7} any money last month, she bought so many things.",1793-7,Shopping,1793,7,45,4,can't have|saved,have,"There's no way that Paula saved anything last month, she did so much shopping."
"The {8} are exactly the same as my old one.",1793-8,Shopping,1793,8,45,4,dimensions of|my new sofa,sofa,"My new sofa is the same size, width and depth as my old sofa."
"They have introduced colour therapy as a way  {1} and productivity.",1792-1,Colds,1792,1,44,4,of fighting|high levels of,stress,"They have introduced colour therapy as a way of relaxing the staff."
"When I'm ill, I like my loved one  {2} with lots of love.",1792-2,Colds,1792,2,44,4,to pamper|me,pamper,"When I'm ill, I like my loved one to treat me with lots of care and attention."
"There is a {3} to do in Bristol.",1792-3,Colds,1792,3,44,4,host of|things,whole,"There are so many things to do in Bristol it's impossible to be bored."
"If I were {5} I would go to the beach in Spain.",1792-5,Colds,1792,5,44,4,in your|shoes,shoes,"If I were you, I would go to the beach in Spain."
"You have to be on {6} for my boss to let you stay at home.",1792-6,Colds,1792,6,44,4,your death|bed,bed,"You have to be seriously ill for my boss to let you stay at home."
"I'm feeling  {7} today and generally run-down.",1792-7,Colds,1792,7,44,4,under the|weather*a little under the|weather*a bit under|the weather,weather,"I'm feeling quite run-down and generally tired."
"I think he's {8} a cold. He looks awful.",1792-8,Colds,1792,8,44,4,going down|with,going,"I think he's beginning to get a cold.  He looks awful!"
"If the movie had had special effects in it {1} it more.",1791-1,Calling In Sick,1791,1,43,4,I would|have enjoyed,enjoyed,"I didn't enjoy the movie because there were no special effects"
"When I'm ill, I like my loved one  {2} with lots of love.",1791-2,Calling In Sick,1791,2,43,4,to pamper|me,pamper,"When I'm ill, I like my loved one to treat me with lots of care and attention."
"There is a {3} to do in Bristol.",1791-3,Calling In Sick,1791,3,43,4,whole host of|things,whole,"There are so many things to do in Bristol it's impossible to be bored."
"If I were {5} I would go to the beach in Spain.",1791-5,Calling In Sick,1791,5,43,4,in your|shoes,shoes,"If I were you, I would go to the beach in Spain."
"You have to be on {6} for my boss to let you take a day off work.",1791-6,Calling In Sick,1791,6,43,4,your death|bed,bed,"You have to be nearly dying for my boss to let you take a day off work."
"I'm feeling  {7} today and generally run-down.",1791-7,Calling In Sick,1791,7,43,4,under the|weather*a little under the|weather*a bit under|the weather,weather,"I'm feeling quite run-down and generally tired."
"He seems to be {8} a cold. He looks awful.",1791-8,Calling In Sick,1791,8,43,4,going down|with,going,"I think he's beginning to get a cold.  He looks awful!"
"We {1} the next train to Cardiff has been cancelled.",1790-1,Smoking,1790,1,42,4,regret|to inform you that*regret|to tell you that*regret|to announce that,regret,"We are afraid that the next train to Cardiff has been cancelled."
"John said that {2} but he'd had too much homework to do.",1790-2,Smoking,1790,2,42,4,he had meant|to phone Sarah,meant,"'I was going to phone Sarah but I had too much homework to do', said John"
"Gone with the Wind {3} one of the greatest films ever made.",1790-3,Smoking,1790,3,42,4,is considered|to be*is thought|to be,be,"Many people think that Gone with the Wind is one of the greatest films ever made."
"Andrew {4} when he was 18.",1790-4,Smoking,1790,4,42,4,regrets|not going to university,going,"Andrew wishes that he had gone to university when he was 18."
"You might be able to get rid of your hiccups if you {5} for a few seconds.",1790-5,Smoking,1790,5,42,4,try|holding your breath,holding,"If you hold your breath for a few seconds it might get rid of your hiccups."
"Anna {6} the promotion instead of her.",1790-6,Smoking,1790,6,42,4,resented one of her colleagues|getting,resented,"Anna didn't like it at all when one of her colleagues got the promotion instead of her."
"It's not {7} for the day because it's too far.",1790-7,Smoking,1790,7,42,4,worth|going to London,going,"You shouldn't go to London for the day because it's too far."
"It's no {8} about the problem because he won't listen.",1790-8,Smoking,1790,8,42,4,use|talking to Jim,use,"Talking to Jim about the problem is pointless because he won't listen."
"It is the penguins' flippers {1} swim under water.",1789-1,Animals,1789,1,41,4,which enable|them to*that enable|them to,enable,"Penguins can swim under water because they have flippers."
"Roland completed his homework {2} dictionary.",1789-2,Animals,1789,2,41,4,with the|aid of a,aid,"Roland used a dictionary to do his homework."
"Humans have {3} over 200,000 years.",1789-3,Animals,1789,3,41,4,been|around for*been|around,around,"The first humans appeared over 200,000 years ago."
"Ellen {4} the bag.",1789-4,Animals,1789,4,41,4,let the cat|out of*let the cat|out,cat,"Ellen told everyone the secret."
"Nowadays we can use technology to predict {5} global warming will occur.",1789-5,Animals,1789,5,41,4,the rate|at which,rate,"We have technology which can predict how quickly the earth's temperature will rise."
"By the time my friend turned up {6} for half an hour.",1789-6,Animals,1789,6,41,4,I had|been waiting,waiting,"I waited for half an hour before my friend turned up."
"Darwin {7} up with the theory of evolution.",1789-7,Animals,1789,7,41,4,is credited|with first coming*is credited|with coming,credited,"People say that it was Darwin who first put forward the theory of evolution."
"Louisa {8} when she thinks about her exam.",1789-8,Animals,1789,8,41,4,has butterflies|in her stomach*gets butterflies|in her stomach*has got butterflies|in her stomach,butterflies,"Louisa feels nervous when she thinks about her exam."
"I'm going to  {1} from the local council for my renovations.",1788-1,Green Issues,1788,1,40,4,receive a|grant,receive,"I am going to get some money from the local council for my renovations."
"I can't  {2} of this question.  It's very unclear.",1788-2,Green Issues,1788,2,40,4,make|sense,make,"I can't understand this question, it's very unclear."
"This meeting will be {3} for my future",1788-3,Green Issues,1788,3,40,4,make|or,break,"This meeting is crucial for my future."
"I just wanted to {4} after our argument.",1788-4,Green Issues,1788,4,40,4,clear|the air,air,"I just wanted to make things better between us after our argument."
"While I'm in Bristol, I'm going to {5} it.",1788-5,Green Issues,1788,5,40,4,make|the most of,most,"While I'm in Bristol, I'm going to take every opportunity available to me to improve my English."
"I {6} to do this immediately.",1788-6,Green Issues,1788,6,40,4,strongly|advise you,strongly,"In my opinion, this is something you must do immediately."
"Oh no, I've {7} tea bags and I hate coffee!",1788-7,Green Issues,1788,7,40,4,run|out of,out,"Oh no, I haven't got any tea bags left and I hate coffee!"
"She's frustrated because she wants {8} to solve her problems.",1788-8,Green Issues,1788,8,40,4,a quick|fix,quick,"She is frustrated because her life coach hasn't solved her problems in one day!"
"I am  {1} spicy food.",1787-1,Once in a blue moon,1787,1,39,4,accustomed to|eating*accustomed to|having*used to|eating*used to|having,to,"Eating spicy food is not a problem for me. It's normal for me."
"I couldn't {2} MP3 player.",1787-2,Once in a blue moon,1787,2,39,4,go without|my,go,"I couldn't survive without my MP3 player. I use it all the time."
"When my dad climbs stairs he always {3} . He's very unfit.",1787-3,Once in a blue moon,1787,3,39,4,gets short|of breath*feels short|of breath,of,"When my dad climbs stairs he always gets quite wheezy. He's very unfit."
"Maradona had a {4} football.",1787-4,Once in a blue moon,1787,4,39,4,talent|for playing,playing,"Maradona was a naturally good footballer."
"I always {5} the choices I have before I decide.",1787-5,Once in a blue moon,1787,5,39,4,reflect carefully|on*carefully reflect|on,carefully,"I always think carefully about what I shoud do."
"When I get angry I always {6} face.",1787-6,Once in a blue moon,1787,6,39,4,go red|in the,in,"When I get angry I always go very red."
"Jaime always {7} an illness",1787-7,Once in a blue moon,1787,7,39,4,takes ages to|recover from,from,"It always takes Jaime ages to get over an illness."
"Elisa and I both {8} basketball",1787-8,Once in a blue moon,1787,8,39,4,share a|passion for,passion,"Elisa and I both love basketball."
"As {1} rain tomorrow.",1786-1,Future Predictions,1786,1,38,4,likely as not|it will,likely,"There's a fifty percent chance of rain tomorrow."
"A school {2} pipeline.",1786-2,Future Predictions,1786,2,38,4,building programme|is in the,programme,"The government are planning to build a lot of new schools."
"It  {3} will win the next US election.",1786-3,Future Predictions,1786,3,38,4,seems inevitable|that the Democrats,inevitable,"It seems that nothing can stop the Democrats from winning the next US election."
"John had to {4} to become a top businessman.",1786-4,Future Predictions,1786,4,38,4,make a lot of|sacrifices,sacrifices,"John had to give up a lot of things in order to become a top businessman."
"The resort will {5} don't visit.",1786-5,Future Predictions,1786,5,38,4,lose money|if tourists,money,"If tourists don't visit the resort it will mean a loss of revenue."
"Paul put his heart {6} his business.",1786-6,Future Predictions,1786,6,38,4,and soul|into building up,soul,"Paul did everything he could to build up his business."
"Roberto {7} a professional footballer.",1786-7,Future Predictions,1786,7,38,4,lacked the talent|to become,lacked,"Roberto wasn't talented enough to become a professional footballer."
"John hoped {8} the sales figures at the meeting.",1786-8,Future Predictions,1786,8,38,4,Paula would not|bring up*Paula wouldn't|bring up,bring,"John didn't want Paula to mention the sales figures at the meeting."
"It {1} to Janet to learn she had lost her job.",1756-1,Hairdresser,1756,1,8,4,came as|a shock*came as|a terrible shock,shock,"Janet was very unpleasantly surprised to learn she had lost her job."
"Martin's behaviour {2} odd.",1756-2,Hairdresser,1756,2,8,4,struck James|as*struck James|as being,struck,"James found Martin's behaviour unusual."
"I'm sorry. I {3} about your country.",1756-3,Hairdresser,1756,3,8,4,take back|the things I said*take back|what I said,take,"I didn't mean to say such nasty things about your country - I'm sorry."
"Only Michael's great ability  {4} the boat from sinking.",1756-4,Hairdresser,1756,4,8,4,to repair things|prevented*to make repairs|prevented*to do repairs|prevented*at repairing things|prevented,prevented,"If Michael hadn't been so good at repairing things, the boat would have sunk."
"If we all {5} we may just save the planet.",1756-5,Hairdresser,1756,5,8,4,cut down on|our energy use*cut down on|our energy usage*cut down on|our energy consumption,cut,"If we all use less energy, we may just save the planet."
"It was {6} the company that Veronique stopped loving her job.",1756-6,Hairdresser,1756,6,8,4,only after|Madelaine joined*only when|Madelaine joined*only after|Madelaine's arrival at,only,"Veronique loved her job before Madelaine joined the company."
"Don't worry. I {7} refuse to marry you.",1756-7,Hairdresser,1756,7,8,4,can't imagine|she will*couldn't imagine|she would*shouldn't imagine|she would,imagine,"Don't worry.  Of course she will agree to marry you."
"Whether or not we {8} my father's new boss.",1756-8,Hairdresser,1756,8,8,4,must move abroad|depends on*must move abroad|will depend on*have to move abroad|depends on*will move abroad|depends on*will move abroad|will depend on*need to move abroad|depends on,,"My father's new boss will decide whether or not we must move abroad."
"As far {1} were two people in the shop when I left.",1757-1,Tired of Studying,1757,1,9,4,as I|can remember,can,"I think I remember seeing two people in the shop when I left."
"She {2} her twin sister.",1757-2,Tired of Studying,1757,2,9,4,gets on|badly with,gets,"She doesn't have a good relationship with her twin sister."
"We don't expect a problem {3} the delay.",1757-3,Tired of Studying,1757,3,9,4,unless somebody|complains about,somebody,"There shouldn't be a problem if there are no complaints about the delay."
"By the end of the lesson {4} speak to the teacher for five minutes.",1757-4,Tired of Studying,1757,4,9,4,everybody had|managed to,managed,"Everyone was able to speak to the teacher for five minutes during the lesson."
"Janet {5} her First Ceritificate first time.",1757-5,Tired of Studying,1757,5,9,4,congratulated Martina|on passing*congratulated Martina|for passing,congratulated,"'Martina, well done for passing your First Certificate first time', said Janet."
"I {6} time to write my homework assignmnets.",1757-6,Tired of Studying,1757,6,9,4,could do|with more*could really do|with more,do,"I wish I had more time to write my homework assignments."
"The new member of staff {7} log onto the computer network.",1757-7,Tired of Studying,1757,7,9,4,has been|shown how to,been,"We have shown the new member of staff how to log onto the computer network."
"During the summer, more {8} is an evening social event in the school.",1757-8,Tired of Studying,1757,8,9,4,often than not|there,than,"Most days of the week we have an evening social event in the school during the summer . "
"Every day, Walter spends  {1} in front of the television.",1758-1,Cooking A Stew,1758,1,10,4,too many hours|sitting*too much time|sitting,sitting,"Walter sits in front of the television for too many hours a day."
"Dogs are not the most  {2} in the UK",1758-2,Cooking A Stew,1758,2,10,4,popular pet|any more*popular pet|any longer*common pet|any more*common pet|any longer*numerous pet|any more,any,"People in Britain used to have more dogs than any other pet."
"You really {3} to the police right away.",1758-3,Cooking A Stew,1758,3,10,4,had better|report it,better,"It really would best if you reported it to the police right away."
"The manager {4} my shoes before I entered the restaurant.",1758-4,Cooking A Stew,1758,4,10,4,insisted on|me taking off*insisted on|me removing*insisted on|my taking off*that I|take off*that I must|take off,insisted,"The manager told me I had to take off my shoes before I entered the restaurant."
"Our teacher told us to {5} the sunshine while the weather was nice.",1758-5,Cooking A Stew,1758,5,10,4,make the most|of,most,"Our teacher told us to enjoy the sunshine as much as possible while the weather was nice."
"Every morning it's my job {6} the paper shop.",1758-6,Cooking A Stew,1758,6,10,4,to fetch the newspapers|from*to fetch newspapers|from,fetch,"Every morning, I have to to go to the paper shop and collect the newspapers."
"If he hadn't got stuck in a traffic jam in the City Centre {7} late.",1758-7,Cooking A Stew,1758,7,10,4,he wouldn't|have been*he wouldn't|have been so,been,"He was late because of a traffic jam in the City Centre."
"I think on {8} successful than women at learning languages.",1758-8,Cooking A Stew,1758,8,10,4,the whole|men are less,whole,"I think generally, women are better than men at learning languages."
"It isn't {1} working after midnight.",1759-1,Bowler Hats,1759,1,11,4,worth|continuing*worth your|continuing*worth it|to continue,worth,"If you continue working after midnight, it isn't going to be helpful."
"I wish {2} in the UK these days.",1759-2,Bowler Hats,1759,2,11,4,houses were|cheaper*houses were|much cheaper*houses were|a bit cheaper*houses were|less expensive*houses were|less dear,were,"I really don't like the fact that houses are so expensive in the UK these days."
"When I came to England {3} all about the school on their website.",1759-3,Bowler Hats,1759,3,11,4,I had already|read*I'd already|read,already,"Before I came to England, I read all about the school on their website."
"The exam {4} which each carry an equal number of marks.",1759-4,Bowler Hats,1759,4,11,4,consists of|four parts,consists,"In the exam there are four parts and each part carries an equal number of marks."
"I will never {5} studying at the school in Bristol.",1759-5,Bowler Hats,1759,5,11,4,forget spending|three months*forget spending|the three months*forget I spent|three months,spending,"I will always remember the three months that I studied at the school in Bristol."
"It's {6} iron a shirt.",1759-6,Bowler Hats,1759,6,11,4,time Robert|learnt how to*time Robert|learnt to*high time Robert|learnt to*time Robert|learned how to*time Robert|learned to*high time Robert|learned to,time,"Robert really should have learnt how to iron a shirt by now."
"Yumiko {7} the flat after the party.",1759-7,Bowler Hats,1759,7,11,4,offered|to clean up*offered|to clean,offered,"'Don't worry, I'll clean up the flat after the party', Yumiko said. "
"Harry {8} from outside the school yesterday.",1759-8,Bowler Hats,1759,8,11,4,had|his bicycle stolen*got|his bicycle stolen,stolen,"Somebody stole Harry's bicycle from outside the school yesterday."
"The papers said that {1} the spectators were out of the stadium before the fire started.",1760-1,Not worth the paper,1760,1,12,4,nearly|all*nearly|all of,worth,"The papers said that the vast majority of the spectators were out of the stadium before the fire started."
"We were {2} when our dinner guests arrived.",1760-2,Not worth the paper,1760,2,12,4,still cleaning|the house,still,"I don't think they will stick to what we agreed in the contract."
"The papers said that {1} the spectators were out of the stadium before the fire started.",1760-3,Not worth the paper,1760,3,12,4,high time|Jenny did,high,"Jenny really must do something about her appearance soon."
"Our {4} while we were on holiday.",1760-4,Not worth the paper,1760,4,12,4,house was|broken into,nearly,"Somebody burgled our house while we were on holiday."
"Alison {5} to lose weight.",1760-5,Not worth the paper,1760,5,12,4,suggested we|started running*suggested we|start running*suggested that we|started running*suggested that we|start running,suggested,"The papers said that the vast majority of the spectators were out of the stadium before the fire started."
"We were {2} when our dinner guests arrived.",1760-6,Not worth the paper,1760,6,12,4,my opinion|she isn't*my opinion|she is not,opinion,"If you ask me, I don't think she is telling the truth."
"Jayne  {7} tennis to get fit.",1760-7,Not worth the paper,1760,7,12,4,is taking|up*is planning on taking|up,still,"Jayne is going to start playing tennis to get fit."
"If we had known how few people were going to come,  {8} so much food.",1760-8,Not worth the paper,1760,8,12,4,we wouldn't|have bought*we would not|have bought,have,"Our dinner guests arrived before we had finished cleaning the house."
"I like apples but I {1} oranges.",1762-1,Exercise Machine,1762,1,14,4,am not really|fond of*am not|fond of*am not at all|fond of*am really not|fond of*'m not really|fond of*'m not|fond of*'m not at all|fond of*'m really not|fond of,fond,"I like apples but I don't really like oranges."
"John {2} America before.",1762-2,Exercise Machine,1762,2,14,4,had never|been to*had never|visited*had never|been in,never,"It was John's first visit to America."
"Historians often dispute that {3} in December.",1762-3,Exercise Machine,1762,3,14,4,the birth of Christ|was*Christ's birth|was,birth,"Historians often dispute that Christ was born in December."
"The suspect {4} lying.",1762-4,Exercise Machine,1762,4,14,4,was found|to have been*was found|to be,found,"Detectives discovered that the suspect was lying."
"I {5} this company for three years.",1762-5,Exercise Machine,1762,5,14,4,have been|working in*'ve been|working in*have been|employed by*'ve been|employed by*have been|working for*'ve been|working for,been,"I started working in this company three years ago."
"Simon asked Paula {6} on the computer.",1762-6,Exercise Machine,1762,6,14,4,where the on-off switch|was,where,"'Paula, can you tell me where the on-off switch is on the computer?' Simon asked."
"I get {7} I work with.",1762-7,Exercise Machine,1762,7,14,4,on well|with everybody*on well|with everybody who*on well|with everybody that,everybody,"I have a good relationship with all of the people I work with."
"I didn't have {8} the Bristol Harbour Festival last year.",1762-8,Exercise Machine,1762,8,14,4,a good time|at*a nice time|at*a very good time|at,time,"I didn't really enjoy the Bristol Harbour Festival last year."
"We got lost because {1} the man in tourist information.",1763-1,I last went to Rome,1763,1,15,4,we were given|the wrong directions by,given,"We got lost because the man in tourist information gave us the wrong directions."
"If we are going to finish the project on time, {2} more help.",1763-2,I last went to Rome,1763,2,15,4,we could|do with,do,"If we are going to finish the project on time, we need more help."
"Kevin finally {3} the car door, although he had locked the keys inside.",1763-3,I last went to Rome,1763,3,15,4,succeeded in|opening,succeeded,"Kevin finally managed to open the car door although he had locked the keys inside."
"As  {4} no reason not to continue with the project.",1763-4,I last went to Rome,1763,4,15,4,far as I can tell|there is,tell,"I can see no reason not to continue with the project."
"Alice {5} what she wanted",1763-5,I last went to Rome,1763,5,15,4,convinced Ayesha|to do,convinced,"Alice made Ayesha do what she wanted."
"we couldn't buy tickets for the concert {6} we were waiting in line when the doors opened.",1763-6,I last went to Rome,1763,6,15,4,despite|the fact that*in spite of|the fact that*regardless of|the fact that*even given|the fact that,that,"We couldn't buy tickets for the concert, although we were waiting in line when the doors opened."
"You  {7} you save some omeny every month before you go.",1763-7,I last went to Rome,1763,7,15,4,won't have such a good holiday|unless*will not have such a good holiday|unless*won't have a very good holiday|unless*will not have a very good holiday|unless,unless,"You will have a better holiday if you save some money every month before you go."
"The dress {8} to the party because I had put on so much weight.",1763-8,I last went to Rome,1763,8,15,4,was too tight|for me to wear*was too small|for me to wear*was too tight|for me*was too small|for me,too,"I couldn't wear the dress to the party because I had put on so much weight."
"Joe is having {1} to London with us.",1764-1,Eating Too Quickly,1764,1,16,4,second thoughts|about coming,second,"Joe is no longer sure that he wants to come to London with us."
"Certain essential products {2} VAT.",1764-2,Eating Too Quickly,1764,2,16,4,are exempt|from,exempt,"You don't have to pay VAT on certain essential products."
"Women don't catch {3} men.",1764-3,Eating Too Quickly,1764,3,16,4,as many colds|as*colds as often|as*cold as often|as,as,"Men are more susceptible to colds than women."
"We have {4} animals better.",1764-4,Eating Too Quickly,1764,4,16,4,an imperative|to treat,imperative,"It's important for us to treat animals better."
"I could {5} holiday",1764-5,Eating Too Quickly,1764,5,16,4,do|with a*really do|with a*do|with having a*really do|with having a,do,"I would very much like, and I think I need, a holiday."
"Carol was advised {6} in computing.",1764-6,Eating Too Quickly,1764,6,16,4,to take|a refresher course*to do|a refresher course,refresher,"Carol was told that she needed to update her computing skills."
"Alex spoke very gently {7} for Margaret.",1764-7,Eating Too Quickly,1764,7,16,4,to soften|the blow*in order to soften|the blow*so as to soften|the blow,blow,"Alex had some bad news for Margaret and didn't want to upset her too much, so he spoke gently to her."
"Speaking English has {8} Pilar.",1764-8,Eating Too Quickly,1764,8,16,4,become|second nature to,nature,"Pilar is now very confident at speaking English."
"Your idea is good, but it {1} before you act on it.",1765-1,Demonstrators,1765,1,17,4,needs|to be thought through*needs|thinking through*needs|thinking through carefully*needs|to be thought through carefully,through,"It's a good idea, but you really need to consider it carefully before you take action."
"My manager wants me to run {2} so that we can evaluate it.",1765-2,Demonstrators,1765,2,17,4,a pilot|scheme*a pilot|project,pilot,"My manager told me that I ought to test my new idea in a small way to see it works."
"Jenny is sorry but she can't come in as she {3} today.",1765-3,Demonstrators,1765,3,17,4,isn't feeling|herself*is not feeling|herself*does not feel|herself*doesn't feel|herself,herself,"Jenny apologises, but she isn't very well today so she won't be coming in."
"The government favour a {4} to young offenders",1765-4,Demonstrators,1765,4,17,4,carrot and stick|approach*carrot and stick|policy,stick,"The government recommend a balance of reward and punishment when dealing with young offenders."
"It seems that agricultural production {5} the total land.",1765-5,Demonstrators,1765,5,17,4,accounts for|just one percent of*accounts for|only one percent of*accounts for|one percent of*accounts for|one per cent of,accounts,"Apparently, only one percent of the total land is used for agricultural production."
"Bananas {6} Graham but he still likes them.",1765-6,Demonstrators,1765,6,17,4,don't agree|with,agree,"Graham likes bananas, but when he eats them he always feels bad afterwards."
"We'll have this job done {7} if we all co-operate.",1765-7,Demonstrators,1765,7,17,4,in next to|no time,next,"Let's all work together, and we'll finish the job very quickly."
"You have to {8} if you want to do well.",1765-8,Demonstrators,1765,8,17,4,play to|your strengths,play,"If you want to succeed, you need to make best use of the things you are good at."
"Parents shouldn't {1} presents, if you ask me.",1766-1,No Further Discussion,1766,1,18,4,shower their children|with,shower,"I don't agree with parents giving their children too many presents."
"It wasn't until the 1960s {2} as a songwriter.",1766-2,No Further Discussion,1766,2,18,4,the Bob Dylan|came to*the Bob Dylan|shot to*the Bob Dylan|rose to,,"Bob Dylan only became well-known as a songwriter in the mid-1960s."
"Steve prefers to {3} caution.",1766-3,No Further Discussion,1766,3,18,4,err on|the side of,err,"Steve prefers not to take too many risks."
"Government statistics suggest that there is {4} in some parts of London.",1766-4,No Further Discussion,1766,4,18,4,a large|criminal element*a significant|criminal element*a sizeable|criminal element,element,"There are a lot of criminals in some parts of London, according to government statistics."
"Sally tends {5} problems.",1766-5,No Further Discussion,1766,5,18,4,to dwell|on her,dwell,"Sally has a habit of thinking for too long about her problems."
"The children were {6} their evil stepmother.",1766-6,No Further Discussion,1766,6,18,4,totally at|the mercy of*completely at|the mercy of,mercy,"The children were totally defenceless against their evil stepmother."
"We have to {7} leniency and strictness.",1766-7,No Further Discussion,1766,7,18,4,strike a|balance between,strike,"We need to find a middle way between being too lenient and being too strict."
"Parents need to {8} for their children.",1766-8,No Further Discussion,1766,8,18,4,set very|clear boundaries*set|clear boundaries*establish|clear boundaries*establish very|clear boundaries,boundaries,"Parents should be very clear about what their children are allowed or not allowed to do."
"I think it {1} make it to the final. She is just not fast enough.",1767-1,Tinkering,1767,1,19,4,highly unlikely|she will,highly,"I really don't think she will make it to the final. She's just not fast enough."
"You really {2} wanted to do, then there wouldn't have been all this trouble.",1767-2,Tinkering,1767,2,19,4,should have told|them what you really*might have told|them what you really*should have told|them what you*might have told|them what you,have,"If you had told them what you really wanted to do, there wouldn't have been all this trouble about it."
"Alicia is always late for everything {3} today as well.",1767-3,Tinkering,1767,3,19,4,so the chances are|she'll be late*so the chances are|she will be late*so the chances are,|she'll be late*so the chances are,|she will be late,chances,"Alicia is always late for everything, so she will probably be late today as well."
"It's {4} Best Picture at the Oscars. No other film is half as good.",1767-4,Tinkering,1767,4,19,4,a foregone conclusion|that the film will win*a foregone conclusion|the film will win,foregone,"It's fairly obvious that the film will win Best Picture at the Oscars. No other film is half as good."
"The {5} his. The other candidates are siimply awful.",1767-5,Tinkering,1767,5,19,4,presidency is|bound to be*presidency is|sure to be*presidency is|guaranteed to be,presidency,"He is bound to be elected as president. The other candidates are simply awful."
"My life is dreadful. {6} to my mother when she told me not to marry him.",1767-6,Tinkering,1767,6,19,4,If only|I had listened*If only|I'd listened,only,"My life is dreadful. I really regret not having listened to my mother when she told me not to marry him."
"Alison was really upset by the news and she looked like {7} tears.",1767-7,Tinkering,1767,7,19,4,she was on the verge of|bursting into*she was on the verge of|shedding tears,verge,"Alison was really upset by the news and she looked like she was going to cry."
"'I have {8} of what happened on that night', said the minister.",1767-8,Tinkering,1767,8,19,4,no memory|whatsoever*no recollection|whatsoever*no recall|whatsoever,whatsoever,"'I remember nothing at all of what happened on that night', said the minister."
"Thirty-five people {1} far this year in bicycle accidents.",1768-1,Endangered Species,1768,1,20,4,have already been killed|so*already have been killed|so*have been killed already|so,already,"The number of people killed this year in bicycle accidents is now thirty-five."
"Everybody is {2} find when they get there.",1768-2,Endangered Species,1768,2,20,4,in the dark about|what they will*in the dark as to|what they will*in the dark on|what they will,dark,"Nobody knows waht to expect when they get there."
"The heart attack {3} by shock.",1768-3,Endangered Species,1768,3,20,4,was probably brought|on*was probably brought|by,brought,"The heart attack was probably caused by shock."
"She {4} that they would all agree with her.",1768-4,Endangered Species,1768,4,20,4,took it|for granted*took it|as read*took it|as given,took,"She simply assumed that they would all agree with her."
"Peter {5} his workload.",1768-5,Endangered Species,1768,5,20,4,can't cope|with*cannot cope|with,cope,"Peter has more work than he can handle."
"I {6} news that my ex-boyfriend's marriage was a disaster.",1768-6,Endangered Species,1768,6,20,4,gloated|over the,gloated,"It gave me great pleasure to hear that my ex-boyfriend's marriage was a disaster."
"The company is {7} the current model.",1768-7,Endangered Species,1768,7,20,4,not planning|on replacing,replacing,"The company has no plans to replace the current model."
"Growing up in a home where the television is permanently switched on {8} educational development.",1768-8,Endangered Species,1768,8,20,4,is not conducive|to children's*is not conducive|to a child's,conducive,"Children's educational development suffers if they grow up in a home where the television is permanently switched on."
"Sarah buys most of her thatre tickets {1} nowadays.",1769-1,Throwing Stones,1769,1,21,4,over|the phone,over,"These days Sarah uses the phone to buy most of her thatre tickets."
"It was a pity that Lincoln only had {2} to put his ideas into practice.",1769-2,Throwing Stones,1769,2,21,4,a short span|of time*a brief span|of time,span,"Unfortunately, Lincoln didn't have much time to put his ideas into practice."
"Michael dug me out of the hole I'd fallen into {3} hands.",1769-3,Throwing Stones,1769,3,21,4,with his|bare hands*using his|bare hands,bare,"Michael just used his hands to dig me out of the hole I had fallen into."
"Janet had to {4} to extend the deadline for her homework.",1769-4,Throwing Stones,1769,4,21,4,plead with|her teacher,plead,"Janet had to beg her teacher for more time to do her homework."
"Dennis tried {5} the competition.",1769-5,Throwing Stones,1769,5,21,4,in vain|to win,vain,"Dennis made great efforts to win the competition but he was unsuccessful."
"My friend has a tendency {6} achievements",1769-6,Throwing Stones,1769,6,21,4,to run down|my achievements,run,"My friend usually tells me that whatever I've achieved isn't really valuable."
"You {7} in this weather.",1769-7,Throwing Stones,1769,7,21,4,won't catch|me going camping*will never catch|me going camping*wouldn't catch|me going camping,catch,"I have absolutely no intention of going camping in this weather."
"Jim was {8} by the court.",1769-8,Throwing Stones,1769,8,21,4,given|a suspended sentence*given|a suspended prison sentence,suspended,"The court said that Jim's prison sentence would not have to be served unless he re-offended."
"My English classes aren't {1} for me.",1770-1,Travelling,1770,1,22,4,easy|enough,enough,"My English classes are too diffficult for me."
"We are {1} becoming fluent at English, after 6 months of study.",1771-1,Skiing Accident,1771,1,23,4,on the|brink of,brink,"After 6 months of study, we are very close to becoming fluent at English."
"It's  {2} university without school qualifications, these days.",1771-2,Skiing Accident,1771,2,23,4,virtually impossible|to get into,virtually,"It's extremely difficult to get into university without school qualifications, these days."
"Our journey to the airport  {3} , due to all the traffic.",1771-3,Skiing Accident,1771,3,23,4,was painfully|slow,painfully,"Because of all the traffic, our journey to the airport took a very long time."
"The economic crisis {4} small businesses.",1771-4,Skiing Accident,1771,4,23,4,will spell|disaster for,spell,"The economic crisis will be very bad for small businesses."
"If the service hadn't {5} have asked for a refund.",1771-5,Skiing Accident,1771,5,23,4,been so poor|I wouldn't*been so very poor|I wouldn't*been so bad|I wouldn't*been so awful|I wouldn't,so,"I asked for a refund since the service in the restaurant was extremely poor.."
"Nothing could {6} my pet dog Rover.",1771-6,Skiing Accident,1771,6,23,4,ever persuade me|to leave*persuade me|to leave,persuade,"I would never want to leave my pet dog, Rover."
"Marcus's visa renewal was refused due {7} over the last month.",1771-7,Skiing Accident,1771,7,23,4,his poor|attendance*his poor|attendance record*his poor|level of attendance,poor,"Marcus attended so few classes over the last month that he was unable to get his visa renewed."
"I really oughtn't {8} on the advertisement.",1771-8,Skiing Accident,1771,8,23,4,to have put|my telephone number,put,"I know it was a bad idea to include my telephone number on the advertisement."
"I'm really  {1} English newspapers",1772-1,Break Down,1772,1,24,4,interested|in,in,"I find English newspapers really interesting. "
"I  {2} in that our noses are both big.",1772-2,Break Down,1772,2,24,4,take after|my father,after,"My father and I have the same nose - they're both big!"
"Because you are studying hard, I will {3} the fact that you are using computers during break times.",1772-3,Break Down,1772,3,24,4,turn a blind|eye to,turn,"You shouldn't use computers at break times, but I will ignore it because you are studying hard."
"If I {4} buy a car.",1772-4,Break Down,1772,4,24,4,won the|lottery, I would*won the|lottery I would*won the|lottery, I'd*won the|lottery I'd,won,"It is possible I will win the lottery and then I can buy a car."
"The school  {5} as a teacher last month.",1772-5,Break Down,1772,5,24,4,took me|on,on,"The school started employing me as a teacher last month."
"My brother  {6} three years.",1772-6,Break Down,1772,6,24,4,has lived|in Bristol for,lived,"My brother moved to Bristol three years ago and is still living there."
"I first  {7} the guitar when I was six years' old.",1772-7,Break Down,1772,7,24,4,took|up playing*took|up,up,"I started playing the guitar when I was six years' old"
"I  {8} my mother showing my friends pictures of me as a baby.",1772-8,Break Down,1772,8,24,4,felt embarrassed|about*was embarrassed|about,embarrassed,"I blushed when my mother showed my friends pictures of me as a baby."
"Frank {1} according to his girlfriend.",1773-1,Rowdy Students,1773,1,25,4,has|a drug habit*has got|a drug habit*has acquired|a drug habit*has developed|a drug habit*is in the habit of|taking drugs,habit,"Frank's girlfriend says he needs to take drugs most days."
"The residents wanted to take {2} in the wake of the arson attack.",1773-2,Rowdy Students,1773,2,25,4,the law into|their own hands,law,"Following the arson attack, the residents didn't want to leave matters to the police."
"The attacker was {3} pending his trial.",1773-3,Rowdy Students,1773,3,25,4,put|in custody*remanded|in custody*placed|in custody,custody,"While he was waiting for his trial, the attacker was put into prison accommodation."
"In her testimony, she said that {4} drugs on her.",1773-4,Rowdy Students,1773,4,25,4,the police|had planted*the police|had planted the,planted,"The police had hidden drugs among her things, she told the court."
"In some townships, people have {5} existence.",1773-5,Rowdy Students,1773,5,25,4,a hand|to mouth,mouth,"People in some of the townships have a daily struggle to find food for themselves."
"According to Sally, {6} is necessary now and then.",1773-6,Rowdy Students,1773,6,25,4,a certain amount of|light relief*some|light relief*a little|light relief*a bit of|light relief,light,"Sally thinks that people need to have a rest from serious things occasionally."
"Because his project was successful, Eric is {7} this week.",1773-7,Rowdy Students,1773,7,25,4,in his boss's|good books*in his boss'|good books,books,"Eric's boss is pleased with Eric this week on account of the success of his project."
"Since the war, nuclear deterence {8} of Britain's defence policy",1773-8,Rowdy Students,1773,8,25,4,has been a|central plank*has been an|important plank,plank,"Nuclear deterence has been a key element of Britain's defence policy since the war."
"I won't {1} I succeed.",1774-1,Expensive Computer,1774,1,26,4,give up|until,give,"I'll keep trying and in the end I'll succeed."
"I {2} beautiful view before.",1774-2,Expensive Computer,1774,2,26,4,'ve never seen|such a*have never seen|such a,such,"This is the most beautiful view I've ever seen."
"My older brother was {3} this job.",1774-3,Expensive Computer,1774,3,26,4,my inspiration|for doing,for,"I was inspired to do this job by my older brother."
"I {4} the exercise",1774-4,Expensive Computer,1774,4,26,4,found it hard|to finish*found it difficult|to finish,found,"I had a hard time finishing the exercise."
"It {5} talk on their mobile phones on the bus.",1774-5,Expensive Computer,1774,5,26,4,doesn't bother me|if people*doesn't bother me|when people*doesn't bother me|that people,bother,"I don't mind people talking on their mobile phones on the bus."
"Stephanie asked Bob {6} in Clifton.",1774-6,Expensive Computer,1774,6,26,4,where the restaurant|was*where the restaurant|is,where,"'Bob, do you know the location of the restaurant in Clifton', asked Stephanie."
"There {7} can ask for help with my assignment.",1774-7,Expensive Computer,1774,7,26,4,is nobody|that I*'s nobody|that I*is nobody|I*'s nobody|I*is nobody|who I*'s nobody|who I,nobody,"There isn't anybody to ask for help with my assignment."
"Tom {8} before the exam.",1774-8,Expensive Computer,1774,8,26,4,regrets|not studying*regrets|not having studied*regrets|that he didn't study,regrets,"Tom feels bad because he didn't study before the exam."
"You can talk to animals? {1} ! I've never heard anything so absurd.",1775-1,Slip of the tongue,1775,1,27,4,come off|it,off ,"You can talk to animals? Don't be ridiculous! I've never heard anything so absurd."
"If you revised for the test, {2} to get any answers correct?",1775-2,Slip of the tongue,1775,2,27,4,how come|you failed,come,"If you revised for the test, why did you fail to get any answers correct?"
"I never got on with my geography teacher at school. He {3} about farming techniques.",1775-3,Slip of the tongue,1775,3,27,4,rambled|on and on*rambled|on*just rambled|on and on*just rambled|on*merely rambled|on and on*merely rambled|on*only rambled|on and on*only rambled|on,rambled,"I never got on with my geography teacher at school. He just told us really boring things about farming techniques for hours on end."
"Although I love my brother dearly, he's the first to admit that he's not the {4} drawer.",1775-4,Slip of the tongue,1775,4,27,4,sharpest knife|in the,sharpest,"Although I love my brother dearly, he's the first to admit that he's not exactly a genius."
"The journey {5} , thanks to the awful traffic conditions.",1775-5,Slip of the tongue,1775,5,27,4,wasn't plain sailing|sailing*was not plain sailing|sailing,plain,"The journey was problematic, thanks to the awful traffic conditions."
"The notion that cosmetic surgery will become the norm seems {6} to me",1775-6,Slip of the tongue,1775,6,27,4,far|fetched*a little far|fetched*rather far|fetched*quite far|fetched*really far|fetched,far,"The notion that cosmetic surgery will become the norm seems rather unrealistic to me."
"There's {7} to the gym after drinking alcohol.",1775-7,Slip of the tongue,1775,7,27,4,no sense|in going*no point|in going,no,"It would be a waste of time to go to the gym after drinking alcohol."
"I {8} happen if I crashed my car.",1775-8,Slip of the tongue,1775,8,27,4,shudder to|think what would,shudder,"I find the prospect of crashing my car absolutely terrifying."
"I {1} coffee. Do you want tea instead?",1776-1,Disconnected Telephone,1776,1,28,4,have run|out of*'ve run|out of,run,"I haven't got any coffee. Do you want tea instead?"
"I'm really {2} my holiday in Greece.",1776-2,Disconnected Telephone,1776,2,28,4,looking forward|to,forward,"I'm so excited about my holiday in Greece."
"Our teacher told us the principal {3} of the exam.",1776-3,Disconnected Telephone,1776,3,28,4,will find out|the date*would find out|the date*will find out|the day*would find out|the day,find,"Our teacher said that the principal will ask when the exam is."
"What time do you {4} school",1776-4,Disconnected Telephone,1776,4,28,4,set off|for,off,"What time do you leave your house to come to school?"
"My sister and I {5} other.",1776-5,Disconnected Telephone,1776,5,28,4,get on well|with each,get,"I have a very good relationship with my sister."
"How about {6} in the telephone directory?",1776-6,Disconnected Telephone,1776,6,28,4,looking up|John's number*looking John's number|up,up,"Why don't youfind John's number in the telephone directory?"
"People {7} as he's an excellent role model.",1776-7,Disconnected Telephone,1776,7,28,4,look up|to,look,"My father is an excellent role model that other people respect and admire."
"The cost of living {8} in the last few years.",1776-8,Disconnected Telephone,1776,8,28,4,has gone up|significantly*'s gone up|significantly,up,"There has been a significant increase in the cost of living in the last few years."
"Chris was {1} the answer.",1777-1,Paying For Tickets,1777,1,29,4,the only person|who knew*the only person|to know*the only student|who knew*the only student|to know,only,"Nobody knew the answer except for Chris."
"Tom {2} before the exam.",1777-2,Paying For Tickets,1777,2,29,4,regrets|not studying*regrets|not having studied*regrets|that he didn't study,regrets,"Tom feels bad because he didn't study before the exam."
"There's {3} to the beach after five o'clock.",1777-3,Paying For Tickets,1777,3,29,4,no point|in going*no point|going*no point|in you going*no point|in your going,point,"If you go to the beach after five o'clock it's a complete waste of time."
"We went for a walk {4} raining.",1777-4,Paying For Tickets,1777,4,29,4,even though|it was*even when|it was,even,"We went for a walk in spite of the rain."
"It's been a {5} saw Samantha.",1777-5,Paying For Tickets,1777,5,29,4,whole month|since I last*whole month|since I,since,"I haven't seen Samantha for a whole month."
"I'll come to the party {6} me a lift home.",1777-6,Paying For Tickets,1777,6,29,4,as long as|you give,long,"I'll only come to the party if you give me a lift home."
"It's quite surprising that {7} chocolate.",1777-7,Paying For Tickets,1777,7,29,4,neither Bill nor Cheryl|likes*neither Bill or Cheryl|likes,nor,"I'm quite surprised that both Bill and Cheryl don't like chocolate."
"The tastiest oranges {8} in Spain.",1777-8,Paying For Tickets,1777,8,29,4,in the world|are grown,grown,"Spanish oranges are the world's tastiest oranges."
"We have to {1} all our homework.",1778-1,Looking After Puppies,1778,1,30,4,stay until|we've finished*stay until|we have finished*stay until|we finish,until,"We can leave as soon as we finish all our homework."
"I've {2} film before.",1778-2,Looking After Puppies,1778,2,30,4,never seen|such an awful*never seen|so awful a,awful,"This is the worst film I've ever seen."
"Apart {3} anybody at the party.",1778-3,Looking After Puppies,1778,3,30,4,from Jim|I didn't know,know,"Jim was the only person that I knew at the party."
"Richard {4} the lamp.",1778-4,Looking After Puppies,1778,4,30,4,didn't mean|to break*did not mean|to break,mean,"Richard broke your lamp by accident."
"I reckon you should {5} to get an acting job.",1778-5,Looking After Puppies,1778,5,30,4,keep on|trying,keep,"I think you should continue to try to get an acting job,"
"You {6} a holiday.",1778-6,Looking After Puppies,1778,6,30,4,can't beat|England for,beat,"England is the best place in the world to go for a holiday."
"You need good realtionships {7} happy.",1778-7,Looking After Puppies,1778,7,30,4,in order|to be,order,"Good relationships are the key to happiness."
"Bungee jumping {8} you might think.",1778-8,Looking After Puppies,1778,8,30,4,isn't as|terrifying as*is not as|terrifying as,as,"People think bungee jumping is more terrifying than it is."
"My friend kept {1} an hour.",1779-1,International Food Party,1779,1,31,4,me waiting|for over*me hanging around|for over*me hanging on|for over,over,"I waited for my friend for more than an hour."
"Some of the best English novels of the Nineteenth Century. {2} women.",1779-2,International Food Party,1779,2,31,4,were written|by,written,"Women writers wrote some of the best English novels of the Nineteenth Century"
"I'm {3} my homework until tomorrow.",1779-3,International Food Party,1779,3,31,4,putting off my homework|until*putting off my homework|till*putting off my homework|til,putting,"I'm not going to do my homework today, I'll do it tomorrow."
"My neighbours {4} well together.",1779-4,International Food Party,1779,4,31,4,and I|get on,get,"I have a good relationship with my neighbours."
"I wish {5} my money on beer and cigarettes.",1779-5,International Food Party,1779,5,31,4,I hadn't|used up,up,"It wasn't a good idea for me to spend all my money on beer and cigarettes, but I did."
"Although England is quite a cold country, {6} there.",1779-6,International Food Party,1779,6,31,4,it|hardly ever snows*you hardly ever|get snow*you hardly ever|see snow,ever,"Although England is quite a cold country, it's very rare to see snow there."
"Alex ate {7} the tin.",1779-7,International Food Party,1779,7,31,4,the last two|biscuits in,last,"There were only two biscuits left in the tin and I'm afraid Alex ate them."
"The police {8} the journalists arrived.",1779-8,International Food Party,1779,8,31,4,had already left|when*had already left|before,already,"The police left and then all the journalists arrived."
"What I {1} is her selfishness.",1780-1,Cancelled Football,1780,1,32,4,can't stand|about Annette,stand,"I really don't like Annette because she is so selfish."
"In Britain, the {2} that they are often late.",1780-2,Cancelled Football,1780,2,32,4,trouble with trains|is,trouble,"Lateness is often a problem with trains in Britain."
"These chairs are {3} they often break.",1780-3,Cancelled Football,1780,3,32,4,so badly|constructed*so badly|constructed that,badly,"They didn't construct these chairs well so they break easily."
"Jill {4} exercises harder.",1780-4,Cancelled Football,1780,4,32,4,won't lose weight|unless she,unless,"Jill will only lose weight if she exercises harder."
"It was {5} to get out of bed this morning.",1780-5,Cancelled Football,1780,5,32,4,too cold|for me,cold,"It wasn't warm enough so I didn't get out of bed this morning."
"I {6} really scary.",1780-6,Cancelled Football,1780,6,32,4,would find|holding a snake,find,"I would be really scared if I had to hold a snake."
"Roberto {7} it rained.",1780-7,Cancelled Football,1780,7,32,4,brought an umbrella|in case,case,"Roberto thought it might rain so he brought an umbrella."
"After his parents died, {8} his Uncle Vernon.",1780-8,Cancelled Football,1780,8,32,4,Harry was brought up|by,brought,"After his parents died, Harry grew up with his Uncle Vernon."
"We decided to {1} when she got too old to walk.",1782-1,Money,1782,1,34,4,have our dog|put,down,"When my dog got too old to walk, the vet gave her an injection to put her to sleep."
"Lots of extra teachers {2} at the Language Project during the summer.",1782-2,Money,1782,2,34,4,are taken|on,taken,"The Language Project always employs lots of extra teachers in the summer."
"I can't stand people who {3} they are richer.",1782-3,Money,1782,3,34,4,look down|on others because,look,"I can't stand people who think that they are superior just because they have money."
"I  {4} when we were travelling together.",1782-4,Money,1782,4,34,4,fell|out with my sister,fell,"My sister and I had a slight disagreement when we were travelling together."
"A teacher should never {5} in front of the class.",1782-5,Money,1782,5,34,4,put her students|down,down,"A teacher should never make her students look stupid in front of the class."
"Tom really {6} parents, who started up their company from nothing.",1782-6,Money,1782,6,34,4,looks up|to his,up,"Tom has such respect and admiration for his parents, who started up their company from nothing."
"Kate told Alice that The Oxford School of English {7} The Language School.",1782-7,Money,1782,7,34,4,had been taken|over by,over,""
"It's common for children {8} each other again quickly after arguing.",1782-8,Money,1782,8,34,4,to make|up with,make,"Children nearly always become friends with each other again quickly after arguing."
"I don't {1} the letter.",1783-1,Environmental policy,1783,1,35,4,remember|posting*remember|having posted,remember,"I'm not sure if I posted the letter or not."
"The music {2} earshot.",1783-2,Environmental policy,1783,2,35,4,was|within,within,"We could hear the music."
"I {3} two years ago.",1783-3,Environmental policy,1783,3,35,4,stopped|wearing glasses,stopped,"I haven't worn glasses for two years."
"The festival {4} very long.",1783-4,Environmental policy,1783,4,35,4,hasn't been|going,going,"The festival is still in its infancy."
"Politicians {5} go to war.",1783-5,Environmental policy,1783,5,35,4,are often short-sighted|when they,short-sighted,"Politicians often don't realise the future implications when they start wars."
"The honesty of {6} into question",1783-6,Environmental policy,1783,6,35,4,the MPs|was called,called,"Some people doubted that the MPs were honest."
"Traditional music {7} taste.",1783-7,Environmental policy,1783,7,35,4,is not to|everyone's*is not to|everybody's*is not|everyone's*is not|everybody's,not,"Not everybody likes traditional music."
"I {8} as a child.",1783-8,Environmental policy,1783,8,35,4,regret not|learning languages*regret not|having learnt*regret not|having learned,regret,"I wish I had learned languages as a child."
"One of John's friends {1} in the crash.",1784-1,Barbeque,1784,1,36,4,wrote the car|off*wrote|off the car,wrote,"The car was damaged beyond repair in the crash by one of John's friends."
"Even nowadays there is still {2} before marriage.",1784-2,Barbeque,1784,2,36,4,a stigma attached|to living together,attached,"Living together before getting married is still frowned upon by some, even in this day and age."
"The latest polls indicate that Labour {3} the Conservatives.",1784-3,Barbeque,1784,3,36,4,are running neck|and neck with*are neck|and neck with,neck,"The latest polls indicate that Labour and Conservative have an equal chance of winning the election."
"Simon had to go to court {4} his children",1784-4,Barbeque,1784,4,36,4,to fight for|custody of,fight,"The reason Simon had to go to court was to try and gain the legal right to keep his children."
"Jane  {5} after failing to pay a large tax bill.",1784-5,Barbeque,1784,5,36,4,was declared|bankrupt,declared,"Failure to pay a large tax bill resulted in Jane having to close down her company."
"The first thing {6} they should cut down on their spending.",1784-6,Barbeque,1784,6,36,4,that springs|to mind is that,springs,"Cutting down on their spending is the first thing that comes into my head."
"It was obvious that the Rangers were going {7} in the final.",1784-7,Barbeque,1784,7,36,4,to beat the Rovers hands|down,hands,"There was no question that the Rangers were going to win the final as the Rovers were so far behind."
"NASA have decided that they will {8} the rocket into space.",1784-8,Barbeque,1784,8,36,4,have to put|off launching,launching,"NASA have decided to postpone sending the rocket into space."
"It really annoys me when people refuse to {1} in an argument.",1785-1,Phrasal Verbs,1785,1,37,4,back|down,back,"I hate it when people refuse to admit they're wrong, even when they know it."
"I simply can't {2} the answer to this question.",1785-2,Phrasal Verbs,1785,2,37,4,work|out,work,"I simply can't find the answer to this question."
"When I finished school, {3} my studies at university.",1785-3,Phrasal Verbs,1785,3,37,4,I went|on with,went,"When I finished school, I continued studying and went to university."
"Most of the Italians I've met {4} Berlusconi.",1785-4,Phrasal Verbs,1785,4,37,4,can't put|up with*cannot put|up with,up,"Most of the Italians I've met find it difficult to tolerate Berlusconi."
"I was {5} the UK.",1785-5,Phrasal Verbs,1785,5,37,4,brought up|in,brought,"I was raised in the UK."
"I hate it when my boyfriend {6} in public.",1785-6,Phrasal Verbs,1785,6,37,4,puts me|down,down,"I hate it when my boyfriend criticises me in public."
"I had no choice but {7} my holiday because I can't afford it.",1785-7,Phrasal Verbs,1785,7,37,4,to|call off,off,"I had to cancel my holiday because I can't afford it."
"I just {8} old schoolfriend that I hadn't seen for 10 years. We just met in the street!",1785-8,Phrasal Verbs,1785,8,37,4,bumped|into an,into,"I met an old schoolfriend that I hadn't seen for 10 years. We just met in the street!"
"The interviewers will {1} that you have found out something about the company and the job.",1755-1,Car Loan,1755,1,7,4,take it|for granted,granted,"The interviewers will assume that you have found out something about the company and the job."
"I am sure that {2} you will not solve the problem.",1755-2,Car Loan,1755,2,7,4,however hard|you try*however much|you try,however,"You can try as hard as you want but I am sure you will not solve the problem."
"The doctor has two other people to see before you so {3} to fill in the forms.",1755-3,Car Loan,1755,3,7,4,in the meantime|I advise you*in the meantime|I'd advise you,meantime,"The doctor has two other people to see before you, so I suggest you fill in the forms while you are waiting."
"You will have to  {4} if you want to pass the exam",1755-4,Car Loan,1755,4,7,4,do a great deal|more studying*do a good deal|more studying,deal,"You will have to study much harder if you want to pass the exam."
"Running the half-marathon was {5} as Sally had imagined.",1755-5,Car Loan,1755,5,7,4,nowhere near|as bad*nowhere near|as hard*nowhere near|as difficult,nowhere,"Running the half-marathon was not nearly as difficult as Sally had imagined."
"The causes of the failure have still {6} for legal reasons.",1755-6,Car Loan,1755,6,7,4,to be fully|examined*got to be fully|examined,fully,"We still have to have a full examination of the causes of the failure for legal reasons."
"Entry to the system {7} five passwords.",1755-7,Car Loan,1755,7,7,4,requires|no fewer than*needs|no fewer than,fewer,"There are at least five passwords to type before you can get into the system."
"He is now {8} the story.",1755-8,Car Loan,1755,8,7,4,thought to have|made up*believed to have|made up*thought to have|dreamt up*believed to have|dreamt up,up,"Initially, everybody believed his story but now they think he was lying."
"I will have to ask you to leave the restaurant if you {1} noisy.",1754-1,The Teacher Decided,1754,1,6,4,keep on|being so*keep|being so*keep on|being,keep,"I will have to ask you to leave the restuarant if you insist on making so much noise."
"If the class had done more homework they {2} the exam.",1754-2,The Teacher Decided,1754,2,6,4,probably would not|have failed*probably wouldn't|have failed*probably would|have passed*probably might|have passed,probably,"The most likely reason for the class failing the exam is that they never did any homework at all."
"I love going on holiday but  {3} when I have to go back to work.",1754-3,The Teacher Decided,1754,3,6,4,it really gets|me down*it gets|me down,gets,"I love going on holiday but it really depresses me when I have to go back to work."
"The doctor's surgery continues for an extra hour {4} of the week.",1754-4,The Teacher Decided,1754,4,6,4,every other|day,other,"The doctor's surgery continues for an extra hour until seven thirty on alternate days of the week."
"Sarah must have {5} the job.",1754-5,The Teacher Decided,1754,5,6,4,found it tough|to turn down*found it difficult|to turn down,Turn,"I don't think it was an easy decision for Sarah to make, turning down the job."
"The new computer programme is by {6} one we have ever used.",1754-6,The Teacher Decided,1754,6,6,4,far the|most useful,most,"The new computer programme is really a lot more useful than the ones we have had before."
"Henri {7} as Pierre, but Pierre is more careful when answering the questions.",1754-7,The Teacher Decided,1754,7,6,4,finds reading|just as difficult*finds reading|just as hard*thinks reading is|just as difficult*thinks reading is|just as hard,just,"Pierre and Henri both find reading equally difficult but Pierre is more careful when answering questions."
"If it weren't {8} towards his aged mother, alan woul dmove abroad.",1754-8,The Teacher Decided,1754,8,6,4,for his|sense of duty,duty,"If he didnt' feel he had to look after his aged mother, Alan would move abroad."
"Marcel wants to go somewhere new on holiday but I  {1} back to the same place again.",1753-1,Trusting Stephen,1753,1,5,4,would|rather go*'d|rather go*would much|rather go*'d much|rather go,rather,"Marcel wants to go somewhere new on holiday but I want to go back to the same place again."
"I have  {2} whatever they want to do.",1753-2,Trusting Stephen,1753,2,5,4,no objection to|their doing*no objection to|them doing,objection,"I am happy to allow them to do whatever they want to do."
"Hilary thanked everybody {3} who couldn't attend the meeting.",1753-3,Trusting Stephen,1753,3,5,4,on behalf of|Janet,,behalf,"Janet couldn't attend the meeting, so Hilary thanked everybody in her place."
"You must  {4} the plane has come to a complete stop.",1753-4,Trusting Stephen,1753,4,5,4,not open your seatbelt|until*not undo your seatbelt|until*not unfasten your seatbelt|until,until,"You can only open your seatbelt when the plane has come to a complete stop."
"The company {5} over the course of the last year.",1753-5,Trusting Stephen,1753,5,5,4,has been increasingly|profitable*has been increasingly|successful*have been increasingly|profitable*have been increasingly|successful,increasingly,"The company profits have increased a lot over the course of the last year."
"Against {6} a complete success and she went to make a full recovery.",1753-6,Trusting Stephen,1753,6,5,4,all odds,|Marie's operation was,odds,"To everyone's surprise Marie survived the operation and made a complete recovery."
"It is {7} have pets nowadys.",1753-7,Trusting Stephen,1753,7,5,4,becoming|less common*becoming|more uncommon*getting|less commmon*getting|more uncommon,common,"Fewer and fewer families have pets nowadays."
"It  {8} whether we go to the cinema or a restaurant.",1753-8,Trusting Stephen,1753,8,5,4,makes no difference|to me*makes little difference|to me*doesn't make a difference|to me*doesn't make any difference|to me,difference,"We can go to the cinema or to a restaurant, I really don't mind."
"The Burj Dubai is {1} building in the world.",1752-1,Saving Money,1752,1,4,4,by far|the tallest,far,"The Burj Dubai is much taller than any other building in the world."
"I  {2} between the Australian accent and the new Zealand accent.",1752-2,Saving Money,1752,2,4,4,can't tell|the difference*can't discern|a difference*can't discern|any difference,tell,"The Australian accent and the New Zealand accent both sound the same to me."
"Someone {3} turn off the lights when they left last night.",1752-3,Saving Money,1752,3,4,4,might have|forgotten to*may have|forgotten to*could have|forgotten to,forgotten,"Maybe someone forgot to turn off the lights when they left last night."
"I have {4} so late.",1752-4,Saving Money,1752,4,4,4,no idea|why he is*no idea|why he's,idea,"I really don't know the reason for his lateness."
"In our school {5} an excellent study room, but also a well-equipped computer room.",1752-5,Saving Money,1752,5,4,4,there is|not only,only,"Our school has both an excellent study room and a well-equipped computer room."
"So far {6} the cleaning job.",1752-6,Saving Money,1752,6,4,4,nobody has|applied for*noone has|applied for,has,"At present we still have no applicants for the cleaning job."
"If I {7} continue the journey in that car.",1752-7,Saving Money,1752,7,4,4,were you|I wouldn't*were you|I would not,you,"I strongly advise against continuing the journey in that car."
"The police {8} the missing money from the office.",1752-8,Saving Money,1752,8,4,4,suspect me|of stealing*suspect that|I stole,suspect,"The police think that I might have stolen the missing money from the office."
"It's been {1} went to London.",1749-1,Travel Agent,1749,1,1,4,five years since|I last*five years since|I,since,"The last time I went to london was five years ago."
"My friend Marie has decided  {2} much sugar she eats.",1749-2,Travel Agent,1749,2,1,4,to cut down on|how,cut,"My friend Marie thinks she should reduce the amount of sugar she eats."
"My grandfather always {3} what his grandchildren were doing.",1749-3,Travel Agent,1749,3,1,4,took an interest|in*showed an interest|in*showed interest|in,interest,"My grandfather always wanted to know what his grandchildren were doing."
"The quiz questions were {4} answer them.",1749-4,Travel Agent,1749,4,1,4,so difficult|that we couldn't,that,"The questions in the quiz were too difficult for us to answer."
"Angela {5} all the questions in the test already.",1749-5,Travel Agent,1749,5,1,4,can't have|finished,have,"I don't believe that Angela has finished all the questions in the test already."
"Anne has {6} to the school karaoke party.",1749-6,Travel Agent,1749,6,1,4,persuaded us|to come,persuaded,"After Anne talked to us, we've decided to come to the school karaoke party."
"I'm afraid {7} the food at the wedding reception.",1749-7,Travel Agent,1749,7,1,4,I wasn't really|keen on*I wasn't|keen on*I wasn't very|keen on*that I wasn't|keen on,keen,"I'm sorry but I didn't really enjoy the the food at the wedding reception."
"This morning, despite {8} early we still arrived late for the first lesson.",1749-8,Travel Agent,1749,8,1,4,the fact that|we left,fact,"We left early this morning but we still arrived late for the first lesson."
