"entry_id","title","url_title","category","channel_title"
2057,"Clothes","esol-smc-clothes","Elementary","Grammar, Vocabulary & Phrases"
2058,"Common verbs","esol-smc-common-verbs","Elementary","Grammar, Vocabulary & Phrases"
2059,"Possessions","esol-smc-possessions","Elementary","Grammar, Vocabulary & Phrases"
2060,"Basic adjectives","esol-smc-basic-adjectives","Elementary","Grammar, Vocabulary & Phrases"
2061,"Strong adjectives","esol-smc-strong-adjectives","Intermediate","Grammar, Vocabulary & Phrases"
2062,"Word building","esol-smc-word-building","Elementary","Grammar, Vocabulary & Phrases"
2063,"Reporting verbs 2","esol-smc-reporting-verbs-2","Advanced","Grammar, Vocabulary & Phrases"
2064,"More word building","esol-smc-more-word-building","Elementary","Grammar, Vocabulary & Phrases"
2065,"Family members","esol-smc-family-members","Elementary","Grammar, Vocabulary & Phrases"
2066,"Confusing words","esol-smc-confusing-words","Elementary","Grammar, Vocabulary & Phrases"
2067,"Groups of things","esol-smc-groups-of-things","Elementary","Grammar, Vocabulary & Phrases"
2068,"The natural world","esol-smc-the-natural-world","Elementary","Grammar, Vocabulary & Phrases"
2069,"Sports","esol-smc-sports","Elementary","Grammar, Vocabulary & Phrases"
2070,"The weather","esol-smc-the-weather","Elementary","Grammar, Vocabulary & Phrases"
2071,"Work: people and places","esol-smc-work-people-and-places","Elementary","Grammar, Vocabulary & Phrases"
2072,"Social phrases","esol-smc-social-phrases","Elementary","Grammar, Vocabulary & Phrases"
2073,"Questions and answers","esol-smc-questions-and-answers","Elementary","Grammar, Vocabulary & Phrases"
2074,"This, that and it","esol-smc-this-that-and-it","Elementary","Grammar, Vocabulary & Phrases"
2075,"Where do you hear it?","esol-smc-where-do-you-hear-it","Elementary","Grammar, Vocabulary & Phrases"
2076,"Who is talking?","esol-smc-who-is-talking","Elementary","Grammar, Vocabulary & Phrases"
2077,"Possessives","esol-smc-possessives","Elementary","Grammar, Vocabulary & Phrases"
2078,"Structures with 'before'","esol-smc-structures-with-before","Intermediate","Grammar, Vocabulary & Phrases"
2079,"Conditionals","esol-smc-conditionals","Intermediate","Grammar, Vocabulary & Phrases"
2080,"Intensifiers","esol-smc-intensifiers",NULL,"Grammar, Vocabulary & Phrases"
2081,"Is there a missing word?","esol-smc-is-there-a-missing-word","Intermediate","Grammar, Vocabulary & Phrases"
2082,"Modal verbs","esol-smc-modal-verbs1","Intermediate","Grammar, Vocabulary & Phrases"
2083,"Accommodation","esol-smc-accommodation","Intermediate","Grammar, Vocabulary & Phrases"
2084,"Body movement verbs","esol-smc-body-movement-verbs","Intermediate","Grammar, Vocabulary & Phrases"
2085,"Cinema","esol-smc-cinema","Intermediate","Grammar, Vocabulary & Phrases"
2086,"Roads and trains","esol-smc-roads-and-trains","Intermediate","Grammar, Vocabulary & Phrases"
2087,"Flying","esol-smc-flying","Intermediate","Grammar, Vocabulary & Phrases"
2088,"Useful phrases In dialogue","esol-smc-useful-phrases-in-dialogue","Intermediate","Grammar, Vocabulary & Phrases"
2089,"More useful phrases in dialogue","esol-smc-more-useful-phrases-in-dialogue","Intermediate","Grammar, Vocabulary & Phrases"
2090,"Useful phrases for conversation","esol-smc-useful-phrases-for-conversation","Intermediate","Grammar, Vocabulary & Phrases"
2091,"More useful phrases for conversation","esol-smc-more-useful-phrases-for-conversation","Intermediate","Grammar, Vocabulary & Phrases"
2092,"Who is talking?","esol-smc-who-is-talking1","Intermediate","Grammar, Vocabulary & Phrases"
2093,"Schools and schooling","esol-smc-schools-and-schooling","Advanced","Grammar, Vocabulary & Phrases"
2094,"Adverbs","esol-smc-adverbs","Advanced","Grammar, Vocabulary & Phrases"
2095,"Conditional sentences","esol-smc-conditional-sentences","Advanced","Grammar, Vocabulary & Phrases"
2096,"-ed and -ing adverbs and adjectives","esol-smc-ed-and-ing-adverbs-and-adjectives","Advanced","Grammar, Vocabulary & Phrases"
2097,"Gradable and absolute adverbs","esol-smc-gradable-and-absolute-adverbs","Advanced","Grammar, Vocabulary & Phrases"
2098,"Imperatives","esol-smc-imperatives","Advanced","Grammar, Vocabulary & Phrases"
2099,"Animal noises","esol-smc-animal-noises","Advanced","Grammar, Vocabulary & Phrases"
2100,"Body idioms","esol-smc-body-idioms","Advanced","Grammar, Vocabulary & Phrases"
2101,"Comparatives with 'as'","esol-smc-comparatives-with-as","Advanced","Grammar, Vocabulary & Phrases"
2102,"Things on the street","esol-smc-things-on-the-street","Elementary","Grammar, Vocabulary & Phrases"
2103,"Quantifiers","esol-smc-quantifiers","Advanced","Grammar, Vocabulary & Phrases"
2104,"Eating out","esol-smc-eating-out","Advanced","Grammar, Vocabulary & Phrases"
2105,"Key expressions","esol-smc-key-expressions","Advanced","Grammar, Vocabulary & Phrases"
2106,"Useful phrases for conversation","esol-smc-useful-phrases-for-conversation1",NULL,"Grammar, Vocabulary & Phrases"
2107,"Useful phrases for conversation 2","esol-smc-useful-phrases-for-conversation-2",NULL,"Grammar, Vocabulary & Phrases"
2056,"At home","esol-smc-at-home","Elementary","Grammar, Vocabulary & Phrases"
2055,"Newspapers / the press","esol-smc-newspapers-the-press","Advanced","Grammar, Vocabulary & Phrases"
2054,"Question words","esol-smc-question-words","Elementary","Grammar, Vocabulary & Phrases"
2053,"The verb 'to be'","esol-smc-the-verb-be","Elementary","Grammar, Vocabulary & Phrases"
2052,"This, that, these and those","esol-smc-this-that-these-and-those","Elementary","Grammar, Vocabulary & Phrases"
2051,"More verb tenses","esol-smc-more-verb-tenses",NULL,"Grammar, Vocabulary & Phrases"
2050,"Verb tenses","esol-smc-verb-tenses","Elementary","Grammar, Vocabulary & Phrases"
2049,"Prepositions of time","esol-smc-prepositions-of-time","Elementary","Grammar, Vocabulary & Phrases"
2048,"Prepositions of place","esol-smc-prepositions-of-place","Elementary","Grammar, Vocabulary & Phrases"
2047,"Plurals","esol-smc-plurals","Elementary","Grammar, Vocabulary & Phrases"
2046,"Negatives","esol-smc-negatives","Elementary","Grammar, Vocabulary & Phrases"
2045,"Is / its / it / it's","esol-smc-is-its-it-it-s","Elementary","Grammar, Vocabulary & Phrases"
2044,"If / and / but / or","esol-smc-if-and-but-or","Elementary","Grammar, Vocabulary & Phrases"
2043,"Gerunds / infinitives","esol-smc-gerunds-infinitives","Elementary","Grammar, Vocabulary & Phrases"
2042,"The verb 'to have'","esol-smc-the-verb-have","Elementary","Grammar, Vocabulary & Phrases"
2041,"The verb 'to do'","esol-smc-the-verb-do","Elementary","Grammar, Vocabulary & Phrases"
2040,"Articles: a / an / the","esol-smc-articles-a-an-the","Elementary","Grammar, Vocabulary & Phrases"
2039,"Adverbs - how long","esol-smc-adverbs-how-long","Elementary","Grammar, Vocabulary & Phrases"
2038,"Comparatives, superlatives","esol-smc-comparatives-superlatives","Elementary","Grammar, Vocabulary & Phrases"
2037,"The environment","esol-smc-the-environment","Intermediate","Grammar, Vocabulary & Phrases"
2036,"Future and space","esol-smc-future-and-space","Advanced","Grammar, Vocabulary & Phrases"
2035,"Food and eating phrases","esol-smc-food-and-eating-phrases","Advanced","Grammar, Vocabulary & Phrases"
2034,"Present perfect / past","esol-smc-present-perfect-past","Advanced","Grammar, Vocabulary & Phrases"
2033,"Numbers and dates","esol-smc-numbers-and-dates","Advanced","Grammar, Vocabulary & Phrases"
2032,"Shopping phrases","esol-smc-shopping-phrases","Intermediate","Grammar, Vocabulary & Phrases"
2031,"New beginnings","esol-smc-new-beginnings","Advanced","Grammar, Vocabulary & Phrases"
2030,"More articles: a, an, the","esol-smc-more-articles-a-an-the","Elementary","Grammar, Vocabulary & Phrases"
2029,"Types of writing","esol-smc-types-of-writing","Advanced","Grammar, Vocabulary & Phrases"
2028,"Prepositions about studying","esol-smc-prepositions-about-studying","Elementary","Grammar, Vocabulary & Phrases"
2027,"Prepositions with people","esol-smc-prepositions-with-people","Elementary","Grammar, Vocabulary & Phrases"
2026,"Past simple / past continuous","esol-smc-past-simple-past-continuous","Intermediate","Grammar, Vocabulary & Phrases"
2025,"Weather adjectives","esol-smc-weather-adjectives","Advanced","Grammar, Vocabulary & Phrases"
2024,"Relative pronouns / relative clauses","esol-smc-relative-pronouns-relative-clauses","Intermediate","Grammar, Vocabulary & Phrases"
2023,"Ways of walking","esol-smc-ways-of-walking","Advanced","Grammar, Vocabulary & Phrases"
2022,"Words connected with water","esol-smc-words-connected-with-water","Advanced","Grammar, Vocabulary & Phrases"
2021,"Colour idioms","esol-smc-colour-idioms","Advanced","Grammar, Vocabulary & Phrases"
2020,"Verbs with 'off'","esol-smc-verbs-with-off","Advanced","Grammar, Vocabulary & Phrases"
2019,"On the road","esol-smc-on-the-road","Advanced","Grammar, Vocabulary & Phrases"
2018,"Sports equipment","esol-smc-sports-equipment","Advanced","Grammar, Vocabulary & Phrases"
2017,"Countable and uncountable nouns","esol-smc-countable-and-uncountable-nouns","Advanced","Grammar, Vocabulary & Phrases"
2016,"Sounds","esol-smc-sounds","Advanced","Grammar, Vocabulary & Phrases"
2015,"Slang","esol-smc-slang","Advanced","Grammar, Vocabulary & Phrases"
2014,"Adjectives about problems","esol-smc-adjectives-about-problems","Advanced","Grammar, Vocabulary & Phrases"
2013,"The environment and pollution","esol-smc-the-environment-and-pollution","Advanced","Grammar, Vocabulary & Phrases"
2012,"Law and order","esol-smc-law-and-order","Advanced","Grammar, Vocabulary & Phrases"
2011,"Telephones","esol-smc-telephones","Advanced","Grammar, Vocabulary & Phrases"
2010,"Parks","esol-smc-parks","Advanced","Grammar, Vocabulary & Phrases"
2009,"Newspapers","esol-smc-newspapers","Advanced","Grammar, Vocabulary & Phrases"
2008,"Cars and driving","esol-smc-cars-and-driving","Advanced","Grammar, Vocabulary & Phrases"
2007,"Money","esol-smc-money","Advanced","Grammar, Vocabulary & Phrases"
2006,"Key moments in life","esol-smc-key-moments-in-life","Advanced","Grammar, Vocabulary & Phrases"
2005,"Days and dates","esol-smc-days-and-dates","Elementary","Grammar, Vocabulary & Phrases"
2004,"Health","esol-smc-health","Advanced","Grammar, Vocabulary & Phrases"
2003,"Food","esol-smc-food","Advanced","Grammar, Vocabulary & Phrases"
2002,"Idioms connected with food","esol-smc-idioms-connected-with-food","Advanced","Grammar, Vocabulary & Phrases"
2001,"Expressions about relationships","esol-smc-expressions-about-relationships","Advanced","Grammar, Vocabulary & Phrases"
2000,"Reflexive expressions","esol-smc-reflexive-expressions","Advanced","Grammar, Vocabulary & Phrases"
1999,"Quantity expressions","esol-smc-quantity-expressions","Advanced","Grammar, Vocabulary & Phrases"
1998,"Words ending with '-less'","esol-smc-words-ending-with-less","Advanced","Grammar, Vocabulary & Phrases"
1997,"Expressions with 'with'","esol-smc-expressions-with-with","Advanced","Grammar, Vocabulary & Phrases"
1996,"More expressions with 'no'","esol-smc-more-expressions-with-no","Advanced","Grammar, Vocabulary & Phrases"
1995,"Expressions with 'no'","esol-smc-expressions-with-no","Advanced","Grammar, Vocabulary & Phrases"
1994,"Expressions with 'for'","esol-smc-expressions-with-for","Advanced","Grammar, Vocabulary & Phrases"
1993,"Expressions with 'as'","esol-smc-expressions-with-as","Advanced","Grammar, Vocabulary & Phrases"
1992,"Expressions with 'on' and body parts","esol-smc-expressions-with-on-and-body-parts","Advanced","Grammar, Vocabulary & Phrases"
1991,"Verbs ending with '-ate'","esol-smc-verbs-ending-with-ate","Advanced","Grammar, Vocabulary & Phrases"
1990,"Verbs ending with '-ify'","esol-smc-verbs-ending-with-ify","Advanced","Grammar, Vocabulary & Phrases"
1989,"Verbs ending with '-en'","esol-smc-verbs-ending-with-en","Advanced","Grammar, Vocabulary & Phrases"
1988,"Future verb forms","esol-smc-future-verb-forms","Intermediate","Grammar, Vocabulary & Phrases"
1987,"Verbs of speaking","esol-smc-verbs-of-speaking","Advanced","Grammar, Vocabulary & Phrases"
1986,"So, though, although and also","esol-smc-so-though-although-and-also",NULL,"Grammar, Vocabulary & Phrases"
1985,"Phrases with prepositions","esol-smc-phrases-with-prepositions","Advanced","Grammar, Vocabulary & Phrases"
1984,"Phrasal verbs","esol-smc-phrasal-verbs","Advanced","Grammar, Vocabulary & Phrases"
1983,"Noun plus infinitive","esol-smc-noun-plus-infinitive","Advanced","Grammar, Vocabulary & Phrases"
1982,"Modal verbs","esol-smc-modal-verbs","Advanced","Grammar, Vocabulary & Phrases"
1981,"Expressions with -ing","esol-smc-expressions-with-ing","Advanced","Grammar, Vocabulary & Phrases"
1980,"Character - parts of speech","esol-smc-character-parts-of-speech",NULL,"Grammar, Vocabulary & Phrases"
1979,"Shopping - parts of speech","esol-smc-shopping-parts-of-speech","Intermediate","Grammar, Vocabulary & Phrases"
1978,"Health - parts of speech","esol-smc-health-parts-of-speech","Intermediate","Grammar, Vocabulary & Phrases"
1977,"Word building - parts of speech","esol-smc-word-building-parts-of-speech","Intermediate","Grammar, Vocabulary & Phrases"
1976,"Language in film reviews","esol-smc-language-in-film-reviews","Intermediate","Grammar, Vocabulary & Phrases"
1975,"All about work","esol-smc-all-about-work","Intermediate","Grammar, Vocabulary & Phrases"
1974,"Verbs with 'up'","esol-smc-verbs-with-up","Intermediate","Grammar, Vocabulary & Phrases"
1973,"Television","esol-smc-television","Intermediate","Grammar, Vocabulary & Phrases"
1971,"Shopping","esol-smc-shopping","Intermediate","Grammar, Vocabulary & Phrases"
1972,"Science and technology","esol-smc-science-and-technology","Intermediate","Grammar, Vocabulary & Phrases"
1970,"Verbs for describing speech","esol-smc-verbs-for-describing-speech","Intermediate","Grammar, Vocabulary & Phrases"
1969,"Famous English proverbs","esol-smc-famous-english-proverbs","Advanced","Grammar, Vocabulary & Phrases"
1968,"Using the prefix 're-'","esol-smc-using-the-prefix-re","Intermediate","Grammar, Vocabulary & Phrases"
1967,"Personality adjectives","esol-smc-personality-adjectives","Intermediate","Grammar, Vocabulary & Phrases"
1966,"Opposite adjectives","esol-smc-opposite-adjectives","Intermediate","Grammar, Vocabulary & Phrases"
1965,"Health problems","esol-smc-health-problems","Intermediate","Grammar, Vocabulary & Phrases"
1964,"General nouns","esol-smc-general-nouns","Intermediate","Grammar, Vocabulary & Phrases"
1963,"To be or not to be?","esol-smc-to-be-or-not-to-be","Intermediate","Grammar, Vocabulary & Phrases"
1962,"Mixed verb tenses","esol-smc-mixed-verb-tenses",NULL,"Grammar, Vocabulary & Phrases"
1961,"Spot the wrong word","esol-smc-spot-the-wrong-word","Intermediate","Grammar, Vocabulary & Phrases"
1957,"So, such, too, very, much","esol-smc-so-such-too-very-much","Intermediate","Grammar, Vocabulary & Phrases"
1958,"Some, any, every, none","esol-smc-some-any-every-none","Intermediate","Grammar, Vocabulary & Phrases"
1959,"Say, speak, talk and tell","esol-smc-say-speak-talk-and-tell","Intermediate","Grammar, Vocabulary & Phrases"
1956,"Who, what, which, where...","esol-smc-who-what-which-where","Intermediate","Grammar, Vocabulary & Phrases"
1953,"Expressions with no, not, any, none","esol-smc-expressions-with-no-not-any-none","Intermediate","Grammar, Vocabulary & Phrases"
1954,"Possessives: I, me, my, mine, myself","esol-smc-possessives-i-me-my-mine-myself","Intermediate","Grammar, Vocabulary & Phrases"
1955,"Question tags","esol-smc-question-tags","Intermediate","Grammar, Vocabulary & Phrases"
1960,"When, while, as, during","esol-smc-when-while-as-during","Intermediate","Grammar, Vocabulary & Phrases"
2108,"Expressions with 'time'","esol-smc-expressions-with-time","Advanced","Grammar, Vocabulary & Phrases"
2109,"Money and finance","esol-smc-money-and-finance","Advanced","Grammar, Vocabulary & Phrases"
2110,"Household chores","esol-smc-household-chores","Advanced","Grammar, Vocabulary & Phrases"
2111,"Weather and climate","esol-smc-weather-and-climate","Advanced","Grammar, Vocabulary & Phrases"
2112,"Transport phrases","esol-smc-transport-phrases","Advanced","Grammar, Vocabulary & Phrases"
2113,"Jokes and humour","esol-smc-jokes-and-humour","Advanced","Grammar, Vocabulary & Phrases"
2114,"Work and jobs","esol-smc-work-and-jobs","Advanced","Grammar, Vocabulary & Phrases"
2115,"Entertainment and going out","esol-smc-entertainment-and-going-out","Advanced","Grammar, Vocabulary & Phrases"
2116,"Telephones and telephoning","esol-smc-telephones-and-telephoning","Advanced","Grammar, Vocabulary & Phrases"
2117,"Holidays","esol-smc-holidays","Advanced","Grammar, Vocabulary & Phrases"
2118,"Social issues","esol-smc-social-issues","Advanced","Grammar, Vocabulary & Phrases"
2119,"Animals and pets","esol-smc-animals-and-pets","Advanced","Grammar, Vocabulary & Phrases"
2120,"Music and song","esol-smc-music-and-song","Advanced","Grammar, Vocabulary & Phrases"
2121,"Women's and men's roles","esol-smc-women-s-and-men-s-roles","Advanced","Grammar, Vocabulary & Phrases"
2122,"Politics","esol-smc-politics","Advanced","Grammar, Vocabulary & Phrases"
2123,"Health and medicine","esol-smc-health-and-medicine","Advanced","Grammar, Vocabulary & Phrases"
2124,"Happiness and sadness","esol-smc-happiness-and-sadness","Advanced","Grammar, Vocabulary & Phrases"
2125,"Ghosts and scary things","esol-smc-ghosts-and-scary-things","Advanced","Grammar, Vocabulary & Phrases"
2126,"Ages and generations","esol-smc-ages-and-generations","Advanced","Grammar, Vocabulary & Phrases"
2127,"Pronouns: she, him, our, mine","esol-smc-pronouns-she-him-our-mine","Elementary","Grammar, Vocabulary & Phrases"
2128,"Driving","esol-smc-driving","Elementary","Grammar, Vocabulary & Phrases"
2129,"Television","esol-smc-television1","Advanced","Grammar, Vocabulary & Phrases"
2130,"History","esol-smc-history","Advanced","Grammar, Vocabulary & Phrases"
2131,"Future verbs","esol-smc-future-verbs","Elementary","Grammar, Vocabulary & Phrases"
2132,"Advertising","esol-smc-advertising","Advanced","Grammar, Vocabulary & Phrases"
2133,"Dependent prepositions","esol-smc-dependent-prepositions","Advanced","Grammar, Vocabulary & Phrases"
2134,"People and personality","esol-smc-people-and-personality","Advanced","Grammar, Vocabulary & Phrases"
2135,"The school and building","esol-smc-the-school-and-building",NULL,"Grammar, Vocabulary & Phrases"
2136,"History of the school","esol-smc-history-of-the-school",NULL,"Grammar, Vocabulary & Phrases"
2137,"TLP trivia","esol-smc-tlp-trivia",NULL,"Grammar, Vocabulary & Phrases"
2138,"Festivals and celebrations","esol-smc-festivals-and-celebrations","Advanced","Grammar, Vocabulary & Phrases"
2139,"Passive sentences","esol-smc-passive-sentences","Intermediate","Grammar, Vocabulary & Phrases"
2140,"Grammar questions","esol-smc-grammar-questions",NULL,"Grammar, Vocabulary & Phrases"
2141,"Grammar / vocabulary","esol-smc-grammar-vocabulary",NULL,"Grammar, Vocabulary & Phrases"
2142,"Vocabulary / idioms","esol-smc-vocabulary-idioms",NULL,"Grammar, Vocabulary & Phrases"
2143,"Past tenses","esol-smc-past-tenses","Intermediate","Grammar, Vocabulary & Phrases"
2144,"Countable / uncountable","esol-smc-countable-uncountable","Elementary","Grammar, Vocabulary & Phrases"
2145,"Past questions","esol-smc-past-questions","Elementary","Grammar, Vocabulary & Phrases"
2146,"There is / there are","esol-smc-there-is-there-are","Elementary","Grammar, Vocabulary & Phrases"
2147,"Adverb - adjective collocation","esol-smc-adverb-adjective-collocation","Advanced","Grammar, Vocabulary & Phrases"
2148,"Phrasal verbs - emotions","esol-smc-phrasal-verbs-emotions","Advanced","Grammar, Vocabulary & Phrases"
2149,"Irregular verbs","esol-smc-irregular-verbs","Elementary","Grammar, Vocabulary & Phrases"
2150,"Relative clause sentences","esol-smc-relative-clause-sentences","Elementary","Grammar, Vocabulary & Phrases"
2151,"Basic verb tenses","esol-smc-basic-verb-tenses","Intermediate","Grammar, Vocabulary & Phrases"
2152,"Conjunctions","esol-smc-conjunctions","Elementary","Grammar, Vocabulary & Phrases"
2153,"Phrasal verbs","esol-smc-phrasal-verbs2","Elementary","Grammar, Vocabulary & Phrases"
2154,"Past, present, future","esol-smc-past-present-future","Elementary","Grammar, Vocabulary & Phrases"
2155,"Reported speech","esol-smc-reported-speech","Intermediate","Grammar, Vocabulary & Phrases"
2156,"Will, would, shall, should","esol-smc-will-would-shall-should","Advanced","Grammar, Vocabulary & Phrases"
2157,"Three-word phrasal verbs","esol-smc-three-word-phrasal-verbs","Advanced","Grammar, Vocabulary & Phrases"
2158,"Articles","esol-smc-articles","Advanced","Grammar, Vocabulary & Phrases"
2159,"Conjunctions and linkers","esol-smc-conjunctions-and-linkers","Advanced","Grammar, Vocabulary & Phrases"
2160,"Present perfect","esol-smc-present-perfect","Advanced","Grammar, Vocabulary & Phrases"
2161,"Quantifiers","esol-smc-quantifiers1","Elementary","Grammar, Vocabulary & Phrases"
2162,"Verbs plus prepositions","esol-smc-verbs-plus-prepositions","Advanced","Grammar, Vocabulary & Phrases"
2163,"Present simple / continuous","esol-smc-present-simple-continuous","Elementary","Grammar, Vocabulary & Phrases"
2164,"Phrasal verbs - science","esol-smc-phrasal-verbs-science","Advanced","Grammar, Vocabulary & Phrases"
2165,"Past tenses","esol-smc-past-tenses1","Advanced","Grammar, Vocabulary & Phrases"
2166,"Dependent prepositions (2)","esol-smc-dependent-prepositions-2","Advanced","Grammar, Vocabulary & Phrases"
2167,"Verb tenses - mixed","esol-smc-verb-tenses-mixed","Elementary","Grammar, Vocabulary & Phrases"
2168,"Passive / causative sentences","esol-smc-passive-causative-sentences","Advanced","Grammar, Vocabulary & Phrases"
2169,"Gerund or infinitive","esol-smc-gerund-or-infinitive","Advanced","Grammar, Vocabulary & Phrases"
2170,"Future verb forms","esol-smc-future-verb-forms1","Advanced","Grammar, Vocabulary & Phrases"
2171,"Get - phrases","esol-smc-get-phrases","Advanced","Grammar, Vocabulary & Phrases"
2172,"More mixed tenses","esol-smc-more-mixed-tenses","Intermediate","Grammar, Vocabulary & Phrases"
2173,"More modal verbs","esol-smc-more-modal-verbs","Advanced","Grammar, Vocabulary & Phrases"
2174,"Phrasal verbs with out","esol-smc-phrasal-verbs-with-off","Intermediate","Grammar, Vocabulary & Phrases"
2175,"Uncountable nouns","esol-smc-uncounatble-nouns","Intermediate","Grammar, Vocabulary & Phrases"
2176,"Say, tell, speak, talk","esol-smc-say-tell-speak-talk","Intermediate","Grammar, Vocabulary & Phrases"
2177,"Describing graphs","esol-smc-describing-graphs","Intermediate","Grammar, Vocabulary & Phrases"
2178,"Infinitive or ing-form","esol-smc-infinitive-or-ing-form","Intermediate","Grammar, Vocabulary & Phrases"
2179,"Phrasal verbs - business","esol-smc-phrasal-verbs-business","Advanced","Grammar, Vocabulary & Phrases"
2180,"Reporting verbs","esol-smc-reporting-verbs","Advanced","Grammar, Vocabulary & Phrases"
2181,"Phrasal verbs","esol-smc-phrasal-verbs1","Intermediate","Grammar, Vocabulary & Phrases"
2182,"Weather","esol-smc-weather","Intermediate","Grammar, Vocabulary & Phrases"
2183,"Phrasal verbs - transport","esol-smc-phrasal-verbs-transport","Intermediate","Grammar, Vocabulary & Phrases"
2184,"Conditionals (2nd and 3rd)","esol-smc-conditionals-2nd-and-3rd","Intermediate","Grammar, Vocabulary & Phrases"
2185,"Phrasal verbs - environment","esol-smc-phrasal-verbs-environment","Advanced","Grammar, Vocabulary & Phrases"
