entry_id,title,url_title,section,category,Type,Introduction
2083,Accommodation,esol-smc-accommodation,Grammar,CAE,Word_Formation,
2014,Adjectives about problems,esol-smc-adjectives-about-problems,Grammar,CAE,Word_Formation,
2147,Adverb - adjective collocation,esol-smc-adverb-adjective-collocation,Grammar,CAE,Word_Formation,
2094,Adverbs,esol-smc-adverbs,Grammar,CAE,Word_Formation,
2039,Adverbs - how long,esol-smc-adverbs-how-long,Grammar,CAE,Word_Formation,
2132,Advertising,esol-smc-advertising,Grammar,CAE,Word_Formation,
2126,Ages and generations,esol-smc-ages-and-generations,Grammar,CAE,Word_Formation,
1975,All about work,esol-smc-all-about-work,Grammar,CAE,Word_Formation,
2099,Animal noises,esol-smc-animal-noises,Grammar,CAE,Word_Formation,
2119,Animals and pets,esol-smc-animals-and-pets,Grammar,CAE,Word_Formation,
2158,Articles,esol-smc-articles,Grammar,CAE,Word_Formation,
2040,Articles: a / an / the,esol-smc-articles-a-an-the,Grammar,CAE,Word_Formation,
2056,At home,esol-smc-at-home,Grammar,CAE,Word_Formation,
2060,Basic adjectives,esol-smc-basic-adjectives,Grammar,CAE,Word_Formation,
2151,Basic verb tenses,esol-smc-basic-verb-tenses,Grammar,CAE,Word_Formation,
2100,Body idioms,esol-smc-body-idioms,Grammar,CAE,Word_Formation,
2084,Body movement verbs,esol-smc-body-movement-verbs,Grammar,CAE,Word_Formation,
2008,Cars and driving,esol-smc-cars-and-driving,Grammar,CAE,Word_Formation,
1980,Character - parts of speech,esol-smc-character-parts-of-speech,Grammar,CAE,Word_Formation,
2085,Cinema,esol-smc-cinema,Grammar,CAE,Word_Formation,
2057,Clothes,esol-smc-clothes,Grammar,CAE,Word_Formation,
2021,Colour idioms,esol-smc-colour-idioms,Grammar,CAE,Word_Formation,
2058,Common verbs,esol-smc-common-verbs,Grammar,CAE,Word_Formation,
2101,Comparatives with 'as',esol-smc-comparatives-with-as,Grammar,CAE,Word_Formation,
2038,Comparatives and superlatives,esol-smc-comparatives-superlatives,Grammar,CAE,Word_Formation,
2095,Conditional sentences,esol-smc-conditional-sentences,Grammar,CAE,Word_Formation,
2079,Conditionals,esol-smc-conditionals,Grammar,CAE,Word_Formation,
2184,Conditionals (2nd and 3rd),esol-smc-conditionals-2nd-and-3rd,Grammar,CAE,Word_Formation,
2066,Confusing words,esol-smc-confusing-words,Grammar,CAE,Word_Formation,
2152,Conjunctions,esol-smc-conjunctions,Grammar,CAE,Word_Formation,
2159,Conjunctions and linkers,esol-smc-conjunctions-and-linkers,Grammar,CAE,Word_Formation,
2144,Countable / uncountable,esol-smc-countable-uncountable,Grammar,CAE,Word_Formation,
2017,Countable and uncountable nouns,esol-smc-countable-and-uncountable-nouns,Grammar,CAE,Word_Formation,
2005,Days and dates,esol-smc-days-and-dates,Grammar,CAE,Word_Formation,
2133,Dependent prepositions,esol-smc-dependent-prepositions,Grammar,CAE,Word_Formation,
2166,Dependent prepositions (2),esol-smc-dependent-prepositions-2,Grammar,CAE,Word_Formation,
2177,Describing graphs,esol-smc-describing-graphs,Grammar,CAE,Word_Formation,
2128,Driving,esol-smc-driving,Grammar,CAE,Word_Formation,
2104,Eating out,esol-smc-eating-out,Grammar,CAE,Word_Formation,
2115,Entertainment and going out,esol-smc-entertainment-and-going-out,Grammar,CAE,Word_Formation,
2001,Expressions about relationships,esol-smc-expressions-about-relationships,Grammar,CAE,Word_Formation,
1981,Expressions with -ing,esol-smc-expressions-with-ing,Grammar,CAE,Word_Formation,
1993,Expressions with 'as',esol-smc-expressions-with-as,Grammar,CAE,Word_Formation,
1994,Expressions with 'for',esol-smc-expressions-with-for,Grammar,CAE,Word_Formation,
1995,Expressions with 'no',esol-smc-expressions-with-no,Grammar,CAE,Word_Formation,
1992,Expressions with 'on' and body parts,esol-smc-expressions-with-on-and-body-parts,Grammar,CAE,Word_Formation,
2108,Expressions with 'time',esol-smc-expressions-with-time,Grammar,CAE,Word_Formation,
