guid,title,iLearn,entry_id,question_id,evaluation code,answer
1800-1,"The History Of Soap",52,1800,1,0,have
1800-2,"The History Of Soap",52,1800,2,0,that
1800-3,"The History Of Soap",52,1800,3,0,While
1800-4,"The History Of Soap",52,1800,4,0,it
1800-5,"The History Of Soap",52,1800,5,0,in
1800-6,"The History Of Soap",52,1800,6,0,manner
1800-7,"The History Of Soap",52,1800,7,0,Such
1800-8,"The History Of Soap",52,1800,8,0,but
1800-9,"The History Of Soap",52,1800,9,0,until
1800-10,"The History Of Soap",52,1800,10,0,enough
1800-11,"The History Of Soap",52,1800,11,0,his
1800-12,"The History Of Soap",52,1800,12,0,one
1801-1,"Stroking Sharks",53,1801,1,0,attempt
1801-2,"Stroking Sharks",53,1801,2,0,has
1801-3,"Stroking Sharks",53,1801,3,0,me
1801-4,"Stroking Sharks",53,1801,4,0,when
1801-5,"Stroking Sharks",53,1801,5,0,way
1801-6,"Stroking Sharks",53,1801,6,0,at
1801-7,"Stroking Sharks",53,1801,7,0,being
1801-8,"Stroking Sharks",53,1801,8,0,little
1801-9,"Stroking Sharks",53,1801,9,0,take
1801-10,"Stroking Sharks",53,1801,10,0,its
1801-11,"Stroking Sharks",53,1801,11,0,took
1801-12,"Stroking Sharks",53,1801,12,0,distance
1801-13,"Stroking Sharks",53,1801,13,0,away
1801-14,"Stroking Sharks",53,1801,14,0,as
1801-15,"Stroking Sharks",53,1801,15,0,enough
1802-1,"Handwriting Analysis",54,1802,1,0,of
1802-2,"Handwriting Analysis",54,1802,2,0,for
1802-3,"Handwriting Analysis",54,1802,3,0,known
1802-4,"Handwriting Analysis",54,1802,4,0,able
1802-5,"Handwriting Analysis",54,1802,5,0,enough
1802-6,"Handwriting Analysis",54,1802,6,0,how
1802-7,"Handwriting Analysis",54,1802,7,0,on
1802-8,"Handwriting Analysis",54,1802,8,0,which
1802-9,"Handwriting Analysis",54,1802,9,0,is
1802-10,"Handwriting Analysis",54,1802,10,0,down
1802-11,"Handwriting Analysis",54,1802,11,0,that
1802-12,"Handwriting Analysis",54,1802,12,0,reason
1803-1,"The Big Issue",55,1803,1,0,or
1803-2,"The Big Issue",55,1803,2,0,the
1803-3,"The Big Issue",55,1803,3,0,not
1803-4,"The Big Issue",55,1803,4,0,of
1803-5,"The Big Issue",55,1803,5,0,was
1803-6,"The Big Issue",55,1803,6,0,who
1803-7,"The Big Issue",55,1803,7,0,had
1803-8,"The Big Issue",55,1803,8,0,as
1803-9,"The Big Issue",55,1803,9,0,up
1803-10,"The Big Issue",55,1803,10,0,all
1803-11,"The Big Issue",55,1803,11,0,areas
1803-12,"The Big Issue",55,1803,12,0,been
1804-1,"Karaoke",56,1804,1,0,named
1804-2,"Karaoke",56,1804,2,0,as
1804-3,"Karaoke",56,1804,3,0,to
1804-4,"Karaoke",56,1804,4,0,make
1804-5,"Karaoke",56,1804,5,0,had
1804-6,"Karaoke",56,1804,6,0,might
1804-7,"Karaoke",56,1804,7,0,so
1804-8,"Karaoke",56,1804,8,0,on
1804-9,"Karaoke",56,1804,9,0,all
1804-10,"Karaoke",56,1804,10,0,that
1804-11,"Karaoke",56,1804,11,0,that
1804-12,"Karaoke",56,1804,12,0,most
1805-1,"The Bristol To Bath Cycle Path",57,1805,1,0,that
1805-2,"The Bristol To Bath Cycle Path",57,1805,2,0,on
1805-3,"The Bristol To Bath Cycle Path",57,1805,3,0,as
1805-4,"The Bristol To Bath Cycle Path",57,1805,4,0,would
1805-5,"The Bristol To Bath Cycle Path",57,1805,5,0,needing
1805-6,"The Bristol To Bath Cycle Path",57,1805,6,0,The
1805-7,"The Bristol To Bath Cycle Path",57,1805,7,0,both
1805-8,"The Bristol To Bath Cycle Path",57,1805,8,0,only
1805-9,"The Bristol To Bath Cycle Path",57,1805,9,0,in
1805-10,"The Bristol To Bath Cycle Path",57,1805,10,0,despite
1805-11,"The Bristol To Bath Cycle Path",57,1805,11,0,has
1805-12,"The Bristol To Bath Cycle Path",57,1805,12,0,with
1806-1,"The Mobile Menace",58,1806,1,0,any
1806-2,"The Mobile Menace",58,1806,2,0,matter
1806-3,"The Mobile Menace",58,1806,3,0,in
1806-4,"The Mobile Menace",58,1806,4,0,switch
1806-5,"The Mobile Menace",58,1806,5,0,when
1806-6,"The Mobile Menace",58,1806,6,0,all
1806-7,"The Mobile Menace",58,1806,7,0,unlikely
1806-8,"The Mobile Menace",58,1806,8,0,who
1806-9,"The Mobile Menace",58,1806,9,0,using
1806-10,"The Mobile Menace",58,1806,10,0,little
1806-11,"The Mobile Menace",58,1806,11,0,without
1806-12,"The Mobile Menace",58,1806,12,0,rather
1806-13,"The Mobile Menace",58,1806,13,0,to
1806-14,"The Mobile Menace",58,1806,14,0,piece
1806-15,"The Mobile Menace",58,1806,15,0,little
1807-1,"The Importance of Being Sporty",59,1807,1,0,one
1807-2,"The Importance of Being Sporty",59,1807,2,0,in
1807-3,"The Importance of Being Sporty",59,1807,3,0,own
1807-4,"The Importance of Being Sporty",59,1807,4,0,by
1807-5,"The Importance of Being Sporty",59,1807,5,0,a
1807-6,"The Importance of Being Sporty",59,1807,6,0,few
1807-7,"The Importance of Being Sporty",59,1807,7,0,in
1807-8,"The Importance of Being Sporty",59,1807,8,0,where
1807-9,"The Importance of Being Sporty",59,1807,9,0,over
1807-10,"The Importance of Being Sporty",59,1807,10,0,from
1807-11,"The Importance of Being Sporty",59,1807,11,0,all
1807-12,"The Importance of Being Sporty",59,1807,12,0,appear
1807-13,"The Importance of Being Sporty",59,1807,13,0,enough
1807-14,"The Importance of Being Sporty",59,1807,14,0,instead
1807-15,"The Importance of Being Sporty",59,1807,15,0,in
1808-1,"Like Cat and Dog",60,1808,1,0,into
1808-2,"Like Cat and Dog",60,1808,2,0,either
1808-3,"Like Cat and Dog",60,1808,3,0,about
1808-4,"Like Cat and Dog",60,1808,4,0,decidedly
1808-5,"Like Cat and Dog",60,1808,5,0,where
1808-6,"Like Cat and Dog",60,1808,6,0,require
1808-7,"Like Cat and Dog",60,1808,7,0,no
1808-8,"Like Cat and Dog",60,1808,8,0,seen
1808-9,"Like Cat and Dog",60,1808,9,0,not
1808-10,"Like Cat and Dog",60,1808,10,0,their
1808-11,"Like Cat and Dog",60,1808,11,0,taken
1808-12,"Like Cat and Dog",60,1808,12,0,by
1808-13,"Like Cat and Dog",60,1808,13,0,what
1808-14,"Like Cat and Dog",60,1808,14,0,for
1808-15,"Like Cat and Dog",60,1808,15,0,those
1809-1,"English",61,1809,1,0,about
1809-2,"English",61,1809,2,0,no
1809-3,"English",61,1809,3,0,its
1809-4,"English",61,1809,4,0,despite
1809-5,"English",61,1809,5,0,it
1809-6,"English",61,1809,6,0,a
1809-7,"English",61,1809,7,0,others
1809-8,"English",61,1809,8,0,in
1809-9,"English",61,1809,9,0,This
1809-10,"English",61,1809,10,0,which
1809-11,"English",61,1809,11,0,out
1809-12,"English",61,1809,12,0,a
1809-13,"English",61,1809,13,0,be
1809-14,"English",61,1809,14,0,of
1809-15,"English",61,1809,15,0,this
1810-1,"Adult Games",62,1810,1,0,the
1810-2,"Adult Games",62,1810,2,0,it
1810-3,"Adult Games",62,1810,3,0,are
1810-4,"Adult Games",62,1810,4,0,for
1810-5,"Adult Games",62,1810,5,0,the
1810-6,"Adult Games",62,1810,6,0,it
1810-7,"Adult Games",62,1810,7,0,among
1810-8,"Adult Games",62,1810,8,0,Not
1810-9,"Adult Games",62,1810,9,0,which
1810-10,"Adult Games",62,1810,10,0,on
1810-11,"Adult Games",62,1810,11,0,possibly
1810-12,"Adult Games",62,1810,12,0,so
1810-13,"Adult Games",62,1810,13,0,you
1810-14,"Adult Games",62,1810,14,0,that
1810-15,"Adult Games",62,1810,15,0,When
1811-1,"Leaving it all behind you",63,1811,1,0,their
1811-2,"Leaving it all behind you",63,1811,2,0,giving
1811-3,"Leaving it all behind you",63,1811,3,0,favour
1811-4,"Leaving it all behind you",63,1811,4,0,behind
1811-5,"Leaving it all behind you",63,1811,5,0,where
1811-6,"Leaving it all behind you",63,1811,6,0,put
1811-7,"Leaving it all behind you",63,1811,7,0,little
1811-8,"Leaving it all behind you",63,1811,8,0,bare
1811-9,"Leaving it all behind you",63,1811,9,0,in
1811-10,"Leaving it all behind you",63,1811,10,0,otherwise
1811-11,"Leaving it all behind you",63,1811,11,0,at
1811-12,"Leaving it all behind you",63,1811,12,0,making
1811-13,"Leaving it all behind you",63,1811,13,0,so
1811-14,"Leaving it all behind you",63,1811,14,0,Whatever
1811-15,"Leaving it all behind you",63,1811,15,0,set
1812-1,"Making Decisions",64,1812,1,0,of
1812-2,"Making Decisions",64,1812,2,0,are
1812-3,"Making Decisions",64,1812,3,0,time
1812-4,"Making Decisions",64,1812,4,0,top
1812-5,"Making Decisions",64,1812,5,0,nothing
1812-6,"Making Decisions",64,1812,6,0,all
1812-7,"Making Decisions",64,1812,7,0,less
1812-8,"Making Decisions",64,1812,8,0,might
1812-9,"Making Decisions",64,1812,9,0,last
1812-10,"Making Decisions",64,1812,10,0,your
1812-11,"Making Decisions",64,1812,11,0,on
1812-12,"Making Decisions",64,1812,12,0,yourself
1812-13,"Making Decisions",64,1812,13,0,of
1812-14,"Making Decisions",64,1812,14,0,on
1812-15,"Making Decisions",64,1812,15,0,leaves
1813-1,"King's Ransom",65,1813,1,0,set
1813-2,"King's Ransom",65,1813,2,0,with
1813-3,"King's Ransom",65,1813,3,0,profit
1813-4,"King's Ransom",65,1813,4,0,every
1813-5,"King's Ransom",65,1813,5,0,worse
1813-6,"King's Ransom",65,1813,6,0,hit
1813-7,"King's Ransom",65,1813,7,0,up
1813-8,"King's Ransom",65,1813,8,0,reach
1813-9,"King's Ransom",65,1813,9,0,need
1813-10,"King's Ransom",65,1813,10,0,its
1813-11,"King's Ransom",65,1813,11,0,took
1813-12,"King's Ransom",65,1813,12,0,too
1813-13,"King's Ransom",65,1813,13,0,which
1813-14,"King's Ransom",65,1813,14,0,summed
1813-15,"King's Ransom",65,1813,15,0,ways
1814-1,"The SS Great Britain",66,1814,1,0,her
1814-2,"The SS Great Britain",66,1814,2,0,alone
1814-3,"The SS Great Britain",66,1814,3,0,with
1814-4,"The SS Great Britain",66,1814,4,0,until
1814-5,"The SS Great Britain",66,1814,5,0,voyage
1814-6,"The SS Great Britain",66,1814,6,0,mere
1814-7,"The SS Great Britain",66,1814,7,0,during
1814-8,"The SS Great Britain",66,1814,8,0,into
1814-9,"The SS Great Britain",66,1814,9,0,for
1814-10,"The SS Great Britain",66,1814,10,0,while
1814-11,"The SS Great Britain",66,1814,11,0,broke
1814-12,"The SS Great Britain",66,1814,12,0,on
1814-13,"The SS Great Britain",66,1814,13,0,beyond
1814-14,"The SS Great Britain",66,1814,14,0,carried
1814-15,"The SS Great Britain",66,1814,15,0,award
1815-1,"Pluto",67,1815,1,0,the
1815-2,"Pluto",67,1815,2,0,solar
1815-3,"Pluto",67,1815,3,0,came
1815-4,"Pluto",67,1815,4,0,whose
1815-5,"Pluto",67,1815,5,0,from
1815-6,"Pluto",67,1815,6,0,this
1815-7,"Pluto",67,1815,7,0,needing
1815-8,"Pluto",67,1815,8,0,night
1815-9,"Pluto",67,1815,9,0,first
1815-10,"Pluto",67,1815,10,0,name
1815-11,"Pluto",67,1815,11,0,began
1815-12,"Pluto",67,1815,12,0,settled
1815-13,"Pluto",67,1815,13,0,by
1815-14,"Pluto",67,1815,14,0,Although
1815-15,"Pluto",67,1815,15,0,satisfy
1816-1,"The London Congestion Charge",68,1816,1,0,making
1816-2,"The London Congestion Charge",68,1816,2,0,went
1816-3,"The London Congestion Charge",68,1816,3,0,first
1816-4,"The London Congestion Charge",68,1816,4,0,brought
1816-5,"The London Congestion Charge",68,1816,5,0,from
1816-6,"The London Congestion Charge",68,1816,6,0,in
1816-7,"The London Congestion Charge",68,1816,7,0,public
1816-8,"The London Congestion Charge",68,1816,8,0,under
1816-9,"The London Congestion Charge",68,1816,9,0,about
1816-10,"The London Congestion Charge",68,1816,10,0,within
1816-11,"The London Congestion Charge",68,1816,11,0,exempt
1816-12,"The London Congestion Charge",68,1816,12,0,carried
1816-13,"The London Congestion Charge",68,1816,13,0,with
1816-14,"The London Congestion Charge",68,1816,14,0,at
1816-15,"The London Congestion Charge",68,1816,15,0,make
1817-1,"Getting Ahead At Work",69,1817,1,0,dealt
1817-2,"Getting Ahead At Work",69,1817,2,0,even
1817-3,"Getting Ahead At Work",69,1817,3,0,put
1817-4,"Getting Ahead At Work",69,1817,4,0,where
1817-5,"Getting Ahead At Work",69,1817,5,0,fair
1817-6,"Getting Ahead At Work",69,1817,6,0,out
1817-7,"Getting Ahead At Work",69,1817,7,0,this
1817-8,"Getting Ahead At Work",69,1817,8,0,on
1817-9,"Getting Ahead At Work",69,1817,9,0,top
1817-10,"Getting Ahead At Work",69,1817,10,0,fact
1817-11,"Getting Ahead At Work",69,1817,11,0,breathing
1817-12,"Getting Ahead At Work",69,1817,12,0,pull
1817-13,"Getting Ahead At Work",69,1817,13,0,get
1817-14,"Getting Ahead At Work",69,1817,14,0,being
1817-15,"Getting Ahead At Work",69,1817,15,0,think
1818-1,"The Perfect Servant",70,1818,1,0,be
1818-2,"The Perfect Servant",70,1818,2,0,slightest
1818-3,"The Perfect Servant",70,1818,3,0,tasks
1818-4,"The Perfect Servant",70,1818,4,0,on
1818-5,"The Perfect Servant",70,1818,5,0,family
1818-6,"The Perfect Servant",70,1818,6,0,come
1818-7,"The Perfect Servant",70,1818,7,0,numbers
1818-8,"The Perfect Servant",70,1818,8,0,lot
1818-9,"The Perfect Servant",70,1818,9,0,nothing
1818-10,"The Perfect Servant",70,1818,10,0,which
1818-11,"The Perfect Servant",70,1818,11,0,a
1818-12,"The Perfect Servant",70,1818,12,0,to
1818-13,"The Perfect Servant",70,1818,13,0,off
1818-14,"The Perfect Servant",70,1818,14,0,must
1818-15,"The Perfect Servant",70,1818,15,0,pair
1819-1,"Health and Fitness",71,1819,1,0,under
1819-2,"Health and Fitness",71,1819,2,0,At
1819-3,"Health and Fitness",71,1819,3,0,are
1819-4,"Health and Fitness",71,1819,4,0,up
1819-5,"Health and Fitness",71,1819,5,0,as
1819-6,"Health and Fitness",71,1819,6,0,From
1819-7,"Health and Fitness",71,1819,7,0,without
1819-8,"Health and Fitness",71,1819,8,0,For
1819-9,"Health and Fitness",71,1819,9,0,at
1819-10,"Health and Fitness",71,1819,10,0,up
1819-11,"Health and Fitness",71,1819,11,0,without
1819-12,"Health and Fitness",71,1819,12,0,after
1820-1,"Clifton Suspension Bridge",72,1820,1,0,on
1820-2,"Clifton Suspension Bridge",72,1820,2,0,other
1820-3,"Clifton Suspension Bridge",72,1820,3,0,its
1820-4,"Clifton Suspension Bridge",72,1820,4,0,prove
1820-5,"Clifton Suspension Bridge",72,1820,5,0,an
1820-6,"Clifton Suspension Bridge",72,1820,6,0,was
1820-7,"Clifton Suspension Bridge",72,1820,7,0,it
1820-8,"Clifton Suspension Bridge",72,1820,8,0,than
1820-9,"Clifton Suspension Bridge",72,1820,9,0,each
1820-10,"Clifton Suspension Bridge",72,1820,10,0,however
1820-11,"Clifton Suspension Bridge",72,1820,11,0,only
1820-12,"Clifton Suspension Bridge",72,1820,12,0,as
1821-1,"Art",73,1821,1,0,for
1821-2,"Art",73,1821,2,0,about
1821-3,"Art",73,1821,3,0,caused
1821-4,"Art",73,1821,4,0,was
1821-5,"Art",73,1821,5,0,for
1821-6,"Art",73,1821,6,0,deep
1821-7,"Art",73,1821,7,0,down
1821-8,"Art",73,1821,8,0,round
1821-9,"Art",73,1821,9,0,up
1821-10,"Art",73,1821,10,0,give
1821-11,"Art",73,1821,11,0,up
1821-12,"Art",73,1821,12,0,white
1822-1,"Redevelopment",74,1822,1,0,compulsion
1822-2,"Redevelopment",74,1822,2,0,down
1822-3,"Redevelopment",74,1822,3,0,bring
1822-4,"Redevelopment",74,1822,4,0,in
1822-5,"Redevelopment",74,1822,5,0,cut
1822-6,"Redevelopment",74,1822,6,0,devote
1822-7,"Redevelopment",74,1822,7,0,capacity
1822-8,"Redevelopment",74,1822,8,0,addition
1822-9,"Redevelopment",74,1822,9,0,of
1822-10,"Redevelopment",74,1822,10,0,example
1822-11,"Redevelopment",74,1822,11,0,need
1822-12,"Redevelopment",74,1822,12,0,tending
1823-1,"Human Resources",75,1823,1,0,actual
1823-2,"Human Resources",75,1823,2,0,work
1823-3,"Human Resources",75,1823,3,0,place
1823-4,"Human Resources",75,1823,4,0,and
1823-5,"Human Resources",75,1823,5,0,wage
1823-6,"Human Resources",75,1823,6,0,in
1823-7,"Human Resources",75,1823,7,0,all
1823-8,"Human Resources",75,1823,8,0,extent
1823-9,"Human Resources",75,1823,9,0,it
1823-10,"Human Resources",75,1823,10,0,in
1823-11,"Human Resources",75,1823,11,0,some
1823-12,"Human Resources",75,1823,12,0,given
1823-13,"Human Resources",75,1823,13,0,in
1823-14,"Human Resources",75,1823,14,0,went
1823-15,"Human Resources",75,1823,15,0,in
1824-1,"Holidaying in Britain",76,1824,1,0,at
1824-2,"Holidaying in Britain",76,1824,2,0,scrimped
1824-3,"Holidaying in Britain",76,1824,3,0,out
1824-4,"Holidaying in Britain",76,1824,4,0,like
1824-5,"Holidaying in Britain",76,1824,5,0,for
1824-6,"Holidaying in Britain",76,1824,6,0,up
1824-7,"Holidaying in Britain",76,1824,7,0,which
1824-8,"Holidaying in Britain",76,1824,8,0,burn
1824-9,"Holidaying in Britain",76,1824,9,0,by
1824-10,"Holidaying in Britain",76,1824,10,0,on
1824-11,"Holidaying in Britain",76,1824,11,0,in
1824-12,"Holidaying in Britain",76,1824,12,0,up
1824-13,"Holidaying in Britain",76,1824,13,0,last
1824-14,"Holidaying in Britain",76,1824,14,0,on
1824-15,"Holidaying in Britain",76,1824,15,0,whatever
1825-1,"Endangered Species Conference",77,1825,1,0,surface
1825-2,"Endangered Species Conference",77,1825,2,0,world
1825-3,"Endangered Species Conference",77,1825,3,0,up
1825-4,"Endangered Species Conference",77,1825,4,0,thin
1825-5,"Endangered Species Conference",77,1825,5,0,up
1825-6,"Endangered Species Conference",77,1825,6,0,fess
1825-7,"Endangered Species Conference",77,1825,7,0,had
1825-8,"Endangered Species Conference",77,1825,8,0,on
1825-9,"Endangered Species Conference",77,1825,9,0,out
1825-10,"Endangered Species Conference",77,1825,10,0,enough
1825-11,"Endangered Species Conference",77,1825,11,0,outside
1825-12,"Endangered Species Conference",77,1825,12,0,it
1825-13,"Endangered Species Conference",77,1825,13,0,with
1825-14,"Endangered Species Conference",77,1825,14,0,kept
1825-15,"Endangered Species Conference",77,1825,15,0,given
1826-1,"Being good at something",78,1826,1,0,able
1826-2,"Being good at something",78,1826,2,0,hang
1826-3,"Being good at something",78,1826,3,0,ability
1826-4,"Being good at something",78,1826,4,0,every
1826-5,"Being good at something",78,1826,5,0,dextrous
1826-6,"Being good at something",78,1826,6,0,run
1826-7,"Being good at something",78,1826,7,0,walk
1826-8,"Being good at something",78,1826,8,0,doubt
1826-9,"Being good at something",78,1826,9,0,taste
1826-10,"Being good at something",78,1826,10,0,with
1826-11,"Being good at something",78,1826,11,0,rid
1826-12,"Being good at something",78,1826,12,0,manage
1827-1,"Putting My Foot In It Again",79,1827,1,0,time
1827-2,"Putting My Foot In It Again",79,1827,2,0,my
1827-3,"Putting My Foot In It Again",79,1827,3,0,on
1827-4,"Putting My Foot In It Again",79,1827,4,0,where
1827-5,"Putting My Foot In It Again",79,1827,5,0,over
1827-6,"Putting My Foot In It Again",79,1827,6,0,the
1827-7,"Putting My Foot In It Again",79,1827,7,0,at
1827-8,"Putting My Foot In It Again",79,1827,8,0,with
1827-9,"Putting My Foot In It Again",79,1827,9,0,reading
1827-10,"Putting My Foot In It Again",79,1827,10,0,my
1827-11,"Putting My Foot In It Again",79,1827,11,0,having
1827-12,"Putting My Foot In It Again",79,1827,12,0,takes
1827-13,"Putting My Foot In It Again",79,1827,13,0,your
1827-14,"Putting My Foot In It Again",79,1827,14,0,blow
1827-15,"Putting My Foot In It Again",79,1827,15,0,just
1828-1,"Serious criminals",80,1828,1,0,one
1828-2,"Serious criminals",80,1828,2,0,on
1828-3,"Serious criminals",80,1828,3,0,enthuse
1828-4,"Serious criminals",80,1828,4,0,axed
1828-5,"Serious criminals",80,1828,5,0,deterrent
1828-6,"Serious criminals",80,1828,6,0,reoffend
1828-7,"Serious criminals",80,1828,7,0,cruel
1828-8,"Serious criminals",80,1828,8,0,misled
1828-9,"Serious criminals",80,1828,9,0,prison
1828-10,"Serious criminals",80,1828,10,0,forced
1828-11,"Serious criminals",80,1828,11,0,deprivation
1828-12,"Serious criminals",80,1828,12,0,be
1828-13,"Serious criminals",80,1828,13,0,boils
1828-14,"Serious criminals",80,1828,14,0,murderers
1828-15,"Serious criminals",80,1828,15,0,deserve
1829-1,"A Floating Voter",81,1829,1,0,out
1829-2,"A Floating Voter",81,1829,2,0,vote
1829-3,"A Floating Voter",81,1829,3,0,made
1829-4,"A Floating Voter",81,1829,4,0,of
1829-5,"A Floating Voter",81,1829,5,0,my
1829-6,"A Floating Voter",81,1829,6,0,in
1829-7,"A Floating Voter",81,1829,7,0,this
1829-8,"A Floating Voter",81,1829,8,0,the
1829-9,"A Floating Voter",81,1829,9,0,at
1829-10,"A Floating Voter",81,1829,10,0,took
1829-11,"A Floating Voter",81,1829,11,0,public
1829-12,"A Floating Voter",81,1829,12,0,none
1829-13,"A Floating Voter",81,1829,13,0,in
1829-14,"A Floating Voter",81,1829,14,0,either
1829-15,"A Floating Voter",81,1829,15,0,from
1830-1,"Free-fall Racing",82,1830,1,0,of
1830-2,"Free-fall Racing",82,1830,2,0,near
1830-3,"Free-fall Racing",82,1830,3,0,it
1830-4,"Free-fall Racing",82,1830,4,0,themselves
1830-5,"Free-fall Racing",82,1830,5,0,near
1830-6,"Free-fall Racing",82,1830,6,0,set
1830-7,"Free-fall Racing",82,1830,7,0,the
1830-8,"Free-fall Racing",82,1830,8,0,up
1830-9,"Free-fall Racing",82,1830,9,0,a
1830-10,"Free-fall Racing",82,1830,10,0,in
1830-11,"Free-fall Racing",82,1830,11,0,their
1830-12,"Free-fall Racing",82,1830,12,0,in
1831-1,"Mountain Hiking",83,1831,1,0,have
1831-2,"Mountain Hiking",83,1831,2,0,me
1831-3,"Mountain Hiking",83,1831,3,0,find
1831-4,"Mountain Hiking",83,1831,4,0,out
1831-5,"Mountain Hiking",83,1831,5,0,in
1831-6,"Mountain Hiking",83,1831,6,0,a
1831-7,"Mountain Hiking",83,1831,7,0,is
1831-8,"Mountain Hiking",83,1831,8,0,into
1831-9,"Mountain Hiking",83,1831,9,0,of
1831-10,"Mountain Hiking",83,1831,10,0,out
1831-11,"Mountain Hiking",83,1831,11,0,got
1831-12,"Mountain Hiking",83,1831,12,0,the
1832-1,"Getting a first job",84,1832,1,0,those
1832-2,"Getting a first job",84,1832,2,0,put
1832-3,"Getting a first job",84,1832,3,0,your
1832-4,"Getting a first job",84,1832,4,0,up
1832-5,"Getting a first job",84,1832,5,0,as
1832-6,"Getting a first job",84,1832,6,0,not
1832-7,"Getting a first job",84,1832,7,0,then
1832-8,"Getting a first job",84,1832,8,0,to
1832-9,"Getting a first job",84,1832,9,0,at
1832-10,"Getting a first job",84,1832,10,0,on
1832-11,"Getting a first job",84,1832,11,0,of
1832-12,"Getting a first job",84,1832,12,0,has
1832-13,"Getting a first job",84,1832,13,0,with
1832-14,"Getting a first job",84,1832,14,0,this
1832-15,"Getting a first job",84,1832,15,0,back
1833-1,"The British Sense Of Humour",85,1833,1,0,for
1833-2,"The British Sense Of Humour",85,1833,2,0,go
1833-3,"The British Sense Of Humour",85,1833,3,0,in
1833-4,"The British Sense Of Humour",85,1833,4,0,with
1833-5,"The British Sense Of Humour",85,1833,5,0,see
1833-6,"The British Sense Of Humour",85,1833,6,0,only
1833-7,"The British Sense Of Humour",85,1833,7,0,to
1833-8,"The British Sense Of Humour",85,1833,8,0,neither
1833-9,"The British Sense Of Humour",85,1833,9,0,off
1833-10,"The British Sense Of Humour",85,1833,10,0,of
1833-11,"The British Sense Of Humour",85,1833,11,0,the
1833-12,"The British Sense Of Humour",85,1833,12,0,either
1834-1,"Paparazzi Pizza",86,1834,1,0,out
1834-2,"Paparazzi Pizza",86,1834,2,0,of
1834-3,"Paparazzi Pizza",86,1834,3,0,the
1834-4,"Paparazzi Pizza",86,1834,4,0,time
1834-5,"Paparazzi Pizza",86,1834,5,0,take
1834-6,"Paparazzi Pizza",86,1834,6,0,out
1834-7,"Paparazzi Pizza",86,1834,7,0,on
1834-8,"Paparazzi Pizza",86,1834,8,0,in
1834-9,"Paparazzi Pizza",86,1834,9,0,made
1834-10,"Paparazzi Pizza",86,1834,10,0,it
1834-11,"Paparazzi Pizza",86,1834,11,0,try
1834-12,"Paparazzi Pizza",86,1834,12,0,behind
1835-1,"Human Resources",87,1835,1,0,actual
1835-2,"Human Resources",87,1835,2,0,work
1835-3,"Human Resources",87,1835,3,0,instance
1835-4,"Human Resources",87,1835,4,0,and
1835-5,"Human Resources",87,1835,5,0,than
1835-6,"Human Resources",87,1835,6,0,in
1835-7,"Human Resources",87,1835,7,0,all
1835-8,"Human Resources",87,1835,8,0,extent
1835-9,"Human Resources",87,1835,9,0,it
1835-10,"Human Resources",87,1835,10,0,had
1835-11,"Human Resources",87,1835,11,0,most
1835-12,"Human Resources",87,1835,12,0,given
1835-13,"Human Resources",87,1835,13,0,while
1835-14,"Human Resources",87,1835,14,0,in
1835-15,"Human Resources",87,1835,15,0,say
2262-1,"some title here just a test",441,2262,1,0,blah
