guid,title,row_text,iLearn,entry_id,op_word,question_id,evaluation code,answer
1922-0,"Television Complaints","In the last fifty years there has been a huge {0} in the technical quality of television programmes in this country. It",174,1922,improve,0,2,improvement
1922-1,"Television Complaints","is true that the system of {1} of pictures and sound have",174,1922,deliver,1,2,delivery
1922-2,"Television Complaints","advanced in a way that would have been {2} in the early days",174,1922,imagine,2,2,unimaginable
1922-3,"Television Complaints","of TV broadcasting. But {3} , peopleâ€™s satisfaction with the service they receive has not increased and in fact the public",174,1922,interest,3,2,interestingly
1922-4,"Television Complaints","are {4} unhappy with the actual programmes themselves.<br/>",174,1922,relate,4,2,relatively
1922-5,"Television Complaints","One frequent complaint is about {5} images and the use",174,1922,agree,5,2,disagreeable
1922-6,"Television Complaints","of {6} language too early in the evening when children may be watching. Every year many people write or send e-mails  to TV companies, complaining about violent images and",174,1922,offend,6,2,offensive
1922-7,"Television Complaints","inappropriate words coming {7} into their homes through their television sets. <br/>",174,1922,invite,7,2,uninvited
1922-8,"Television Complaints","{8} , however, the most common complaint is that television programmes have become so safe, predictable and boring",174,1922,appear,8,2,apparently
1922-9,"Television Complaints","that most of them are completely {9} . This is the reason",174,1922,watch,9,2,unwatchable
1922-10,"Television Complaints","that is often {10} given in government statistics to explain the increasing number of people who have no TV and prefer  instead to use the Internet.",174,1922,office,10,2,officially
1921-0,"Criminal Behaviour","The increase in city crime is a {0} phenomenon. Some people",173,1921,globe,0,2,global
1921-1,"Criminal Behaviour","say that a lot of crime in this country is because of {1} and the new people arriving from other countries bring different",173,1921,migrate,1,2,immigration
1921-2,"Criminal Behaviour","{2} values and attitudes to the law. I don't agree with this",173,1921,culture,2,2,cultural
1921-3,"Criminal Behaviour","idea because the most common crimes are {3} produced",173,1921,local,3,2,locally
1921-4,"Criminal Behaviour","and not imported from other countries. {4} is one of the biggest crimes in my city with bus shelters and shop windows",173,1921,vandal,4,2,vandalism
1921-5,"Criminal Behaviour","being popular targets. Another popular crime is {5} parking fines, which is unlikely to be because of immigrants because  most of them do not own cars. <br/>",173,1921,pay,5,2,unpaid
1921-6,"Criminal Behaviour","The {6} point of view is that young local people feel angry",173,1921,oppose,6,2,opposing
1921-7,"Criminal Behaviour","when they can't get a job and in order to {7} the change in their environment, they strike out at easy targets. This",173,1921,hand,7,2,handle
1921-8,"Criminal Behaviour","would explain why bicycle {8} is more common than car",173,1921,thief,8,2,theft
1921-9,"Criminal Behaviour","crime these days, especially in rich {9} where most cars are protected with electronic alarms. <br/>Another reason, though, for so many bicycles getting stolen",173,1921,neighbours,9,2,neighbourhoods
1921-10,"Criminal Behaviour","might be that the {10} is not very severe compared to car stealing which can land you in prison for a number of years.",173,1921,punish,10,2,punishment
1920-0,"Help Tomas for £5 a Month","Tomas is just one of millions of children living in {0}",172,1920,develop,0,2,developing
1920-1,"Help Tomas for £5 a Month","countries where {1} diseases are very common and the",172,1920,infection,1,2,infectious
1920-2,"Help Tomas for £5 a Month","average life {2} can be as low as half that of the UK. When",172,1920,expect,2,2,expectancy
1920-3,"Help Tomas for £5 a Month","Tomas was recovering from malaria he was badly {3} and in constant need of medical attention. He was lucky enough to  receive help from the First Care Foundation and within a few",172,1920,hydration,3,2,dehydrated
1920-4,"Help Tomas for £5 a Month","days, we witnessed a complete {4} .<br/>",172,1920,transform,4,2,transformation
1920-5,"Help Tomas for £5 a Month","If you can afford a five-pound monthly {5} with the FCF, your",172,1920,subscribe,5,2,subscription
1920-6,"Help Tomas for £5 a Month","money could be providing vital {6} for ten children or paying for one sick child to receive treatment. This may seem like",172,1920,vaccines,6,2,vaccination
1920-7,"Help Tomas for £5 a Month","a small {7} but by making this important contribution to",172,1920,commit,7,2,commitment
1920-8,"Help Tomas for £5 a Month","reducing the child {8} rate, you can use your earnings in the",172,1920,mortal,8,2,mortality
1920-9,"Help Tomas for £5 a Month","most {9} way possible. And if you can afford to keep making",172,1920,fulfil,9,2,fulfilling
1920-10,"Help Tomas for £5 a Month","payments {10} , who knows how many lives you could save?<br/>Remember, children like Tomas need your five pounds more  than you do. Please make a donation today.",172,1920,definite,10,2,indefinitely
1919-0,"The Perfect Language Student","Most newcomers to language learning often don't have the {0}",171,1919,faint,0,2,faintest
1919-1,"The Perfect Language Student","idea of how to improve {1} and quickly. No doubt they will",171,1919,efficiency,1,2,efficiently
1919-2,"The Perfect Language Student","have the {2} and enthusiasm of any newcomer to a field of study. But along with these feelings there will also probably",171,1919,excited,2,2,excitement
1919-3,"The Perfect Language Student","be a certain amount of {3} and fear of failure. It is surely",171,1919,anxious,3,2,anxiety
1919-4,"The Perfect Language Student","true that language learning is one of the most mentally {4} forms of study. <br/>Most teachers would agree that what makes some students",171,1919,strain,4,2,strenuous
1919-5,"The Perfect Language Student","learn faster than others is their day-to-day {5} .This is",171,1919,behave,5,2,behaviour
1919-6,"The Perfect Language Student","usually a mixture of quiet {6} that what they are doing is",171,1919,confident,6,2,confidence
1919-7,"The Perfect Language Student","useful and also the habit of listening to {7} of their writing and speaking in the new language. They also need to be",171,1919,criticise,7,2,criticism
1919-8,"The Perfect Language Student","{8} enough in their efforts to find the answer to a problem",171,1919,persist,8,2,persistent
1919-9,"The Perfect Language Student","even when it seems to be completely {9} . It is this combination of characteristics that makes the perfect language  learner continue to make progress even as their work becomes",171,1919,solve,9,2,unsolvable
1919-10,"The Perfect Language Student","{10} difficult the more they learn.",171,1919,increase,10,2,increasingly
1918-0,"Scuba Diving","Since my first {0} scuba lesson fifteen years ago, I am glad",170,1918,terror,0,2,terrifying
1918-1,"Scuba Diving","to say that my {1} of the underwater world has totally",170,1918,perceive,1,2,perception
1918-2,"Scuba Diving","changed and I have become {2} aware of the extreme beauty",170,1918,increase,2,2,increasingly
1918-3,"Scuba Diving","and {3} variety of life that you find as soon as you leave",170,1918,credible,3,2,incredible
1918-4,"Scuba Diving","the {4} of the water's surface and move a few metres into the sea's depths. <br/>",170,1918,secure,4,2,security
1918-5,"Scuba Diving","Of course all of these things can be easily {5} by watching",170,1918,experience,5,2,experienced
1918-6,"Scuba Diving","television but in my opinion, this is nothing in {6} with actually seeing sea creatures for yourself. <br/>But with so many extraordinary sights to behold even on the",170,1918,compare,6,2,comparison
1918-7,"Scuba Diving","first dive it is easy to forget that diving is a {7} activity with many risks especially for first-time divers. If a diver's  air supply is not carefully controlled, he or she can easily",170,1918,hazard,7,2,hazardous
1918-8,"Scuba Diving","lose {8} which is very serious when you are so far down.<br/>",170,1918,conscious,8,2,consciousness
1918-9,"Scuba Diving","But {9} the sport is controlled around the world by a small",170,1918,fortune,9,2,fortunately
1918-10,"Scuba Diving","number of organisations which have {10} enforced safety rules which all divers worldwide are expected to follow.",170,1918,strict,10,2,strictly
1917-0,"Illegal Downloads","The problem of people illegally {0} music from the Internet",169,1917,load,0,2,downloading
1917-1,"Illegal Downloads","has been gaining large amounts of {1} in recent weeks. The",169,1917,public,1,2,publicity
1917-2,"Illegal Downloads","fact that so much {2} pop music is now available from illegal sources, means that young people are no longer purchasing",169,1917,main,2,2,mainstream
1917-3,"Illegal Downloads","the latest {3} tune from legitimate sellers.<br/>",169,1917,catch,3,2,catchy
1917-4,"Illegal Downloads","But although this practice is {4} upon by many older citizens,",169,1917,frown,4,2,frowned
1917-5,"Illegal Downloads","the younger age-group, who would be more likely to {5} new music stars and be willing to pay for their creations are",169,1917,idol,5,2,idolise
1917-6,"Illegal Downloads","beginning to resent the idea of {6} the pockets of musicians who are often already multi-millionaires. These young song-",169,1917,line,6,2,lining
1917-7,"Illegal Downloads","swappers present other {7} arguments why for their peers",169,1917,compulsory,7,2,compelling
1917-8,"Illegal Downloads","illegal file-sharing has become the {8} . They point to the ephemeral nature of the music industry and suggest that any",169,1917,normal,8,2,norm
1917-9,"Illegal Downloads","music star with truly {9} appeal will never be short of money",169,1917,last,9,2,lasting
1917-10,"Illegal Downloads","and believe that the decision should {10} be up to you whether you pay to copy something that you can hear for free  on the radio anyway.",169,1917,ultimate,10,2,ultimately
1916-0,"Fears and phobias","Are you one of millions of people who find spiders {0} ?",168,1916,scare,0,2,scary
1916-1,"Fears and phobias","If so, how great is your fear? Would you be {1} about entering a room if you knew there was a spider inside or do you feel",168,1916,caution,1,2,cautious
1916-2,"Fears and phobias","{2} just looking at a picture of one? When does a fear become",168,1916,comfort,2,2,uncomfortable
1916-3,"Fears and phobias","a phobia? It is {3} reasonable to be afraid of dangerous animals, but people with phobias are often terrified of",168,1916,complete,3,2,completely
1916-4,"Fears and phobias","animals which they know are {4} .<br/>",168,1916,harm,4,2,harmless
1916-5,"Fears and phobias","So why do spiders make some people feel so much {5} ?",168,1916,anxious,5,2,anxiety
1916-6,"Fears and phobias","One {6} explanation is that in the past, people who were afraid of spiders were less likely to be killed by one, so their fear  was passed on genetically to their children. However, there  are no deadly spiders in central and northern Europe, where  a fear of spiders is common. This suggests the fear may",168,1916,science,6,2,scientific
1916-7,"Fears and phobias","be learned {7} .<br/>It seems that in many cases, a fear of spiders is the result",168,1916,culture,7,2,culturally
1916-8,"Fears and phobias","of a {8} experience with one in early childhood, although the",168,1916,terror,8,2,terrifying
1916-9,"Fears and phobias","event is {9} not remembered. Whatever the cause, many",168,1916,frequent,9,2,frequently
1916-10,"Fears and phobias","find relaxation, hypnotherapy or acupuncture {10} in overcoming their phobia.",168,1916,help,10,2,helpful
1915-0,"Specialist Required","An experienced {0} waste management officer is required at",167,1915,toxin,0,2,toxic
1915-1,"Specialist Required","the Highbridge City landfill site for {1} leave cover over the",167,1915,maternal,1,2,maternity
1915-2,"Specialist Required","next six months. We are looking for a {2} and hard-working individual with at least three years' experience in either",167,1915,determine,2,2,determined
1915-3,"Specialist Required","environmental sciences or land {3} . The preferred candidate",167,1915,reclaim,3,2,reclamation
1915-4,"Specialist Required","will have a flair for {4} and excellent team-management skills",167,1915,priority,4,2,prioritising
1915-5,"Specialist Required","as a {5} proportion of the job will involve coordinating the work of others. <br/>The post also involves a certain amount of public relations,",167,1915,size,5,2,sizeable
1915-6,"Specialist Required","raising local {6} of the issues surrounding landfill and the",167,1915,aware,6,2,awareness
1915-7,"Specialist Required","damage caused by {7} organisations and individuals not complying with current regulations. At times, you will be",167,1915,scruples,7,2,unscrupulous
1915-8,"Specialist Required","required to take legal action against {8} members of the",167,1915,cooperate,8,2,uncooperative
1915-9,"Specialist Required","public or persistent offenders and this will require a {9}",167,1915,thought,9,2,thoughtful
1915-10,"Specialist Required","approach along with a familiarity with local {10} laws.<br/>Interested candidates should apply in writing to the  Highbridge City Council Human Resources department.",167,1915,environment,10,2,environmental
1914-0,"The Student Lifestyle","For some {0} reason, university students have always had an",166,1914,explain,0,2,inexplicable
1914-1,"The Student Lifestyle","image of being {1} irresponsible young people who play their",166,1914,utter,1,2,utterly
1914-2,"The Student Lifestyle","music at {2} volumes at all times of the day and night, hardly",166,1914,deaf,2,2,deafening
1914-3,"The Student Lifestyle","ever do any real work and spend every night attending {3} parties until the small hours of the morning. Personally, I",166,1914,drunk,3,2,drunken
1914-4,"The Student Lifestyle","think this portrayal of students as such totally {4} parasites,",166,1914,repel,4,2,repulsive
1914-5,"The Student Lifestyle","is {5} unfair, not least because living such an excessive",166,1914,gross,5,2,grossly
1914-6,"The Student Lifestyle","lifestyle continually would be {6} impossible when combined",166,1914,practice,6,2,practically
1914-7,"The Student Lifestyle","with the absolutely {7} workloads of modern degree courses.<br/>",166,1914,mass,7,2,massive
1914-8,"The Student Lifestyle","It {8} isn't possible on a modern degree course in the UK to get up some time at around lunchtime. Students that I  know seem to have lectures almost every day and spend the",166,1914,simple,8,2,simply
1914-9,"The Student Lifestyle","rest of their time working {9} hard indeed. They may let off some steam once every month or so and it is probably",166,1914,awe,9,2,awfully
1914-10,"The Student Lifestyle","these {10} rare occasions that have given undergraduates their fearsome reputation.",166,1914,relate,10,2,relatively
1913-0,"Filchester Parade","When the Filchester Parade Shopping Centre {0} opened its",165,1913,finish,0,2,finally
1913-1,"Filchester Parade","doors the public last month, its owners were {1} of the impression they might create by showcasing a commercial",165,1913,mind,1,2,mindful
1913-2,"Filchester Parade","centre in a time of {2} uncertainty. It would have seemed",165,1913,economy,2,2,economic
1913-3,"Filchester Parade","almost {3} to mark the opening with a grand spectacular",165,1913,morality,3,2,immoral
1913-4,"Filchester Parade","event of the kind {4} held for such occasions a few years ago. For this reason it was decided to make the first day of",165,1913,type,4,2,typically
1913-5,"Filchester Parade","business deliberately low-key with no big {5} fanfare, speeches, singing or dancing. <br/>For this reason the various businesses that have retail",165,1913,pretend,5,2,pretentious
1913-6,"Filchester Parade","outlets in the centre were understandably {6} about their first month of business. But the no-frills opening seems",165,1913,anxiety,6,2,anxious
1913-7,"Filchester Parade","to have paid off. Despite a {7} start in the first week the",165,1913,slugs,7,2,sluggish
1913-8,"Filchester Parade","pace of business has {8} picked up and it seems shoppers are generally impressed with the brand new, spotless shop",165,1913,grade,8,2,gradually
1913-9,"Filchester Parade","fronts, and {9} wooden-clad exteriors. However, some",165,1913,style,9,2,stylish
1913-10,"Filchester Parade","visitors have expressed the opinion that the {10} towers at the front entrance of the main building make the centre  look a bit too much like Disneyland.",165,1913,point,10,2,pointed
1912-0,"Museum Of Bad Art","The Museum of Bad Art is a {0} owned museum which was set",164,1912,private,0,2,privately
1912-1,"Museum Of Bad Art","up to be a {1} of art that the owners think is 'too bad to be ignored'. Its two branches, in Dedham Massachusetts and in",164,1912,celebrate,1,2,celebration
1912-2,"Museum Of Bad Art","Somerville display what is {2} the worst collection of art in",164,1912,argue,2,2,arguably
1912-3,"Museum Of Bad Art","the world. The museum was founded when antique {3} , Scott Wilson discovered a painting protruding from between",164,1912,deal,3,2,dealer
1912-4,"Museum Of Bad Art","two rubbish bins on a street in Boston. {4} , Wilson was only interested in using the frame at first but the painting made",164,1912,appear,4,2,apparently
1912-5,"Museum Of Bad Art","a strong {5} on his friend Jerry Reilly, and when, soon",164,1912,impressed,5,2,impression
1912-6,"Museum Of Bad Art","after, Wilson rescued another equally {6} work of so-called art, the pair decided to start a collection. <br/>",164,1912,agree,6,2,disagreeable
1912-7,"Museum Of Bad Art","At first they held regular showings in the {7} of Reilly's",164,1912,base,7,2,basement
1912-8,"Museum Of Bad Art","house but with the {8} of many more pieces, they were forced to seek a permanent location and eventually the collection  was housed in a room at the Dedham Community Theatre.",164,1912,donor,8,2,donation
1912-9,"Museum Of Bad Art","Now it was possible for the works to be {9} and fully appreciated by the wider public. <br/>The museum has in the past been criticised for being anti-  art, but Wilson and Reilly insist that their collection is a",164,1912,scrutiny,9,2,scrutinised
1912-10,"Museum Of Bad Art","celebration of the {10} of the artists, who continued to try producing art even when it kept going horribly wrong.",164,1912,sincere,10,2,sincerity
1911-0,"Hunting For Ghosts","For most investigations into {0} phenomena, the following hints and tips should be of some use. First and foremost,",163,1911,normal,0,2,paranormal
1911-1,"Hunting For Ghosts","the ghost hunter should be aware of {1} weather conditions",163,1911,prevail,1,2,prevailing
1911-2,"Hunting For Ghosts","as the effects of climate on equipment cannot be {2} . In",163,1911,state,2,2,understated
1911-3,"Hunting For Ghosts","all {3} it will not be possible to work in an environment",163,1911,probably,3,2,probability
1911-4,"Hunting For Ghosts","with a total lack of {4} sounds but wherever possible, sources of external noise should be kept to a minimum. The site of",163,1911,ambience,4,2,ambient
1911-5,"Hunting For Ghosts","the haunting is unlikely to be a heavily {5} recording studio but many of the recording devices we recommend will only",163,1911,sound,5,2,soundproofed
1911-6,"Hunting For Ghosts","really work in conditions approaching {6} silence.<br/>",163,1911,dead,6,2,deathly
1911-7,"Hunting For Ghosts","First-time ghost hunters should also be aware of {7} issues related to the use of digital or analogue voice recorders and  video and depending on your location, the use of these in",163,1911,private,7,2,privacy
1911-8,"Hunting For Ghosts","public areas could be subject to {8} .<br/>Finally, we cannot stress enough the importance of remaining",163,1911,restricted,8,2,restrictions
1911-9,"Hunting For Ghosts","sceptical at all times. It would be {9} for a professional ghost hunter to publish an account of a supernatural",163,1911,think,9,2,unthinkable
1911-10,"Hunting For Ghosts","occurrence without first considering every possible {10} explanation you can give for what you have recorded.",163,1911,ration,10,2,rational
1910-0,"Office Life","I had quite a {0} job a few years ago working in a",162,1910,demand,0,2,demanding
1910-1,"Office Life","trade {1} . My boss there was quite",162,1910,authorise,1,2,authority
1910-2,"Office Life","the {2} and demanded complete",162,1910,perfect,2,2,perfectionist
1910-3,"Office Life","{3} from everyone working in our department. I must say, he wasn't the most popular person in the office",162,1910,precise,3,2,precision
1910-4,"Office Life","as he always thought his {4} was superior to that of the rest of the staff. In fact, he was down right arrogant! I remember once at",162,1910,expert,4,2,expertise
1910-5,"Office Life","a {5} meeting where his boss was",162,1910,manage,5,2,management
1910-6,"Office Life","in {6} , he interrupted everyone and made their ideas seem to be his own so as to gain favour. In fact,",162,1910,attend,6,2,attendance
1910-7,"Office Life","he {7} from his briefcase a complete presentation that he had taken from me from a previous meeting! Can you",162,1910,production,7,2,produced
1910-8,"Office Life","believe that! {8} , the head of the department didn't like the idea. That evening, I was walking down the street and I saw",162,1910,Fortune,8,2,Fortunately
1910-9,"Office Life","a guy {9} quite badly down the street. He had definitely been drinking. When I caught up to the guy,  he turned out to be my boss. I must say",162,1910,stagger,9,2,staggering
1910-10,"Office Life","he is quite a {10} character.",162,1910,forget,10,2,forgettable
1909-0,"Crazy School Uniform","It has been {0} to wear uniform in many British schools for",161,1909,compel,0,2,compulsory
1909-1,"Crazy School Uniform","years. But on certain occasions students have some {1} to",161,1909,free,1,2,freedom
1909-2,"Crazy School Uniform","express themselves with their clothes. I can {2} remember a school party from my school days at which two of my",161,1909,clear,2,2,clearly
1909-3,"Crazy School Uniform","contemporaries produced a {3} costume which they had",161,1909,ridicule,3,2,ridiculous
1909-4,"Crazy School Uniform","{4} on the school colours of yellow and black. Inspired",161,1909,base,4,2,based
1909-5,"Crazy School Uniform","by the {5} hip-hop culture of the early nineties, they",161,1909,emerge,5,2,emerging
1909-6,"Crazy School Uniform","somehow managed to create a hideous {6} using a black plastic bin bag and a school sweater. This was combined  with a pair of fluorescent yellow tights which one of the",161,1909,hood,6,2,hoodie
1909-7,"Crazy School Uniform","two {7} had drawn stripes on with a black permanent",161,1909,create,7,2,creators
1909-8,"Crazy School Uniform","marker pen. But by far the most {8} part of the costume was the disgusting mustard-yellow dressing gown which they",161,1909,taste,8,2,tasteless
1909-9,"Crazy School Uniform","had bought in a charity shop earlier that morning. Not {9} ,",161,1909,surprise,9,2,surprisingly
1909-10,"Crazy School Uniform","this costume won the first prize and the big {10} rugby player and his much smaller creative girlfriend were invited  onto the stage to be presented with a gift voucher.",161,1909,muscles,10,2,muscular
1908-0,"A Bad First Impression","There is a saying that first {0} are generally correct and",160,1908,impress,0,2,impressions
1908-1,"A Bad First Impression","I would say that {1} , throughout my entire life, I have found this to be true apart from one notable exception of",160,1908,all,1,2,overall
1908-2,"A Bad First Impression","a good friend and neighbour with whom my first {2} was decidedly unfriendly. <br/>",160,1908,change,2,2,interchange
1908-3,"A Bad First Impression","At the time of our first meeting I was living in a {3} area",160,1908,deprive,3,2,deprived
1908-4,"A Bad First Impression","of London, not far from the exit of a dual {4} and this meant that although it was a residential street, even with",160,1908,carriage,4,2,carriageway
1908-5,"A Bad First Impression","the {5} will in the world, drivers would often travel dangerously fast within inches of my front door. This used  to really annoy me and I have to admit I did often go a bit",160,1908,good,5,2,best
1908-6,"A Bad First Impression","{6} in expressing my anger even though (or perhaps because)",160,1908,board,6,2,overboard
1908-7,"A Bad First Impression","I knew I didn't stand a {7} chance of being taken notice of or even noticed at all. So when one day, I shouted my usual  string of swear words at a rapidly passing car and it  immediately screamed to a halt, my first reaction was an",160,1908,reason,7,2,reasonable
1908-8,"A Bad First Impression","enormous sense of {8} But then the driver of the car opened his window and shouted a stream of swear words back at me. <br/>So the next morning, I was more than a little surprised to  find an apology note from the same motorist in my mail box",160,1908,achieve,8,2,achievement
1908-9,"A Bad First Impression","explaining that in an attempt to {9} his career as an up and",160,1908,far,9,2,further
1908-10,"A Bad First Impression","coming IT {10} he had been driving too fast the previous evening and inviting me to have dinner with him and his  wife.",160,1908,consult,10,2,consultant
1907-0,"Greece","If you are after a very {0} holiday where you can get away from it all, why not visit Greece? <br/>",159,1907,please,0,2,pleasant
1907-1,"Greece","There are {1} places to visit, both on the mainland and on the islands. Personally, one of my favourite areas is the",159,1907,number,1,2,numerous
1907-2,"Greece","Peloponnese. There is a wide {2} of things to see and do.<br/>You could visit Nafplio, the ancient capital of Greece and  home to Palamidi Castle. This is where the great leader  Kolokotronis defended Greece against the Turks in the Greek",159,1907,vary,2,2,variety
1907-3,"Greece","War of {3} . The castle itself is in the centre of the town and",159,1907,depend,3,2,independence
1907-4,"Greece","if you are feeling {4} you can climb the 857 steps to the top.",159,1907,energy,4,2,energetic
1907-5,"Greece","Even though the climb is tiring, you will not be {5} as the",159,1907,appoint,5,2,disappointed
1907-6,"Greece","views from the top are breathtaking, {6} on a sunny day. For the less active, you might like to take a stroll through  the old town and take a seat at one of the many cafes, order  a glass of Retsina and watch the world go by. <br/>",159,1907,special,6,2,especially
1907-7,"Greece","Olympia, home of the Olympic Games, is also {7} in the Peloponnese and well-worth a visit. It is like stepping back",159,1907,site,7,2,situated
1907-8,"Greece","in time to the original Olympics, when {8} , only men were",159,1907,tradition,8,2,traditionally
1907-9,"Greece","allowed to {9} .<br/>To sum up, whether you want to sunbathe on a beautiful",159,1907,competition,9,2,compete
1907-10,"Greece","sandy beach or go {10} in ancient towns and cities steeped in history, Greece is the place for you.",159,1907,seeing,10,2,sightseeing
1906-0,"The UK Wealth Gap","To most {0} who have never visited the UK, we appear to live",158,1906,outside,0,2,outsiders
1906-1,"The UK Wealth Gap","in a land of plenty, with a population of high {1} living in",158,1906,earnings,1,2,earners
1906-2,"The UK Wealth Gap","large {2} decorated homes. Even if we are not the famous people they have seen in magazines, we must at least be",158,1906,taste,2,2,tastefully
1906-3,"The UK Wealth Gap","{3} off enough to own two cars and provide more than",158,1906,comfort,3,2,comfortably
1906-4,"The UK Wealth Gap","the bare {4} for our families. This is the image of the UK",158,1906,necessary,4,2,necessities
1906-5,"The UK Wealth Gap","abroad, a whole country or people safely above the {5} line.<br/>Visit the UK, however, and it soon becomes apparent",158,1906,poor,5,2,poverty
1906-6,"The UK Wealth Gap","that the impeccably {6} homes and lifestyles of the rich",158,1906,furniture,6,2,furnished
1906-7,"The UK Wealth Gap","and famous are {7} by huge numbers of individuals whose working hours are long and whose salaries are, at best,",158,1906,pin,7,2,underpinned
1906-8,"The UK Wealth Gap","average. You shouldn't need to {8} your senses too much to notice this army of tired workers shuffling around late-  night supermarkets, in search of special offers. <br/>",158,1906,sharp,8,2,sharpen
1906-9,"The UK Wealth Gap","In the past, politicians have called for drastic {9} to reduce our nation's inequality. But now many people believe",158,1906,measurement,9,2,measures
1906-10,"The UK Wealth Gap","that a head-on {10} between these two disparate groups is increasingly inevitable.",158,1906,collide,10,2,collision
1905-0,"Wearing Glasses","Since my early {0} when to my annoyance, I was diagnosed",157,1905,children,0,2,childhood
1905-1,"Wearing Glasses","as being short-sighted while I was still in {1} school, I",157,1905,nurse,1,2,nursery
1905-2,"Wearing Glasses","have reliably worn my regular pair of {2} almost non-stop. At school, to prevent any feeling of inequality, all children",157,1905,spectators,2,2,spectacles
1905-3,"Wearing Glasses","with glasses were obliged to wear {3} cheap plastic frames",157,1905,compel,3,2,compulsory
1905-4,"Wearing Glasses","as part of the school uniform. Not having a {4} streak myself, I never tried to defy these regulations. Also, my",157,1905,rebel,4,2,rebellious
1905-5,"Wearing Glasses","family never seemed to have a(n) {5} of money so there",157,1905,abundant,5,2,overabundance
1905-6,"Wearing Glasses","was considerable {6} pressure on my brothers and I to do without such frivolous extravagances. <br/>As I grew older it was suggested that wearing such unsightly",157,1905,parents,6,2,parental
1905-7,"Wearing Glasses","things on my face meant that I was {7} always to remain single and generally to be unsuccessful in my career. But I",157,1905,destiny,7,2,destined
1905-8,"Wearing Glasses","never seemed to have trouble in either {8} and have enjoyed both a lucrative work life and a long successful marriage. <br/>Occasionally, though I do get annoyed by the idea that the",157,1905,depart,8,2,department
1905-9,"Wearing Glasses","wearing of glasses seems to have entered the collective {9} as being innately unattractive which has in turn forced so",157,1905,conscious,9,2,consciousness
1905-10,"Wearing Glasses","many people to {10} over the whether to endure the inconvenience and discomfort of wearing contact lenses.",157,1905,agony,10,2,agonise
1904-0,"Learning English","You might {0} that learning English is a unique experience",156,1904,image,0,2,imagine
1904-1,"Learning English","but in fact it is not. Whatever individual {1} might say, one",156,1904,teach,1,2,teachers
1904-2,"Learning English","class is pretty much like {2} However, the relationship that",156,1904,other,2,2,another
1904-3,"Learning English","develops between the teacher and a particular group of {3} is altogether unique, as singular as a fingerprint. With the",156,1904,study,3,2,students
1904-4,"Learning English","{4} exception of those with recognised social problems, most groups are made up of individuals who fall into a few broad  categories. You have the leaders, the negotiators, the",156,1904,note,4,2,notable
1904-5,"Learning English","questioners and the blockers. {5} , the same person can play different roles in different groups, so a blocker in one group  may be a leader in another. <br/>What, I hear you ask, is the importance of this for the",156,1904,interest,5,2,interestingly
1904-6,"Learning English","teacher? Well, a successful teacher will {6} who is playing",156,1904,identity,6,2,identify
1904-7,"Learning English","which role and use that {7} to enhance the class as a whole.",156,1904,know,7,2,knowledge
1904-8,"Learning English","By careful {8} of pairs and groups, a teacher can help some",156,1904,arrange,8,2,arrangement
1904-9,"Learning English","students overcome {9} while ensuring that everybody benefits",156,1904,shy,9,2,shyness
1904-10,"Learning English","fully from the lessons. She can play to everybodyâ€™s {10} without exploiting anybodyâ€™s weakness and so keep the whole  class feeling positive and engaged.",156,1904,strong,10,2,strength
1903-0,"Bridget Jones Diary","Having just {0} reading Bridget Jones Diary, I feel that I",155,1903,finish,0,2,finished
1903-1,"Bridget Jones Diary","can {1} recommend this book to our readers. I am not saying",155,1903,equivocal,1,2,unequivocally
1903-2,"Bridget Jones Diary","that it {2} high-brow or even that reading it will have a major impact on your life but it is a fun read and very  popular. It is the story of a young woman living in London  in the 1990s. She is single and steadfastly looking for",155,1903,present,2,2,represents
1903-3,"Bridget Jones Diary","love, absolutely {3} with her weight and equally concerned",155,1903,obsession,3,2,obsessed
1903-4,"Bridget Jones Diary","about her {4} of alcohol and cigarettes. She hates her job, her mother is having a mid-life crisis and she has a crush",155,1903,take,4,2,intake
1903-5,"Bridget Jones Diary","on a thoroughly {5} young man.<br/>",155,1903,suit,5,2,unsuitable
1903-6,"Bridget Jones Diary","It may well remind you of another book, an {6} famous one as it happens. It is perhaps one of the best known works of",155,1903,extreme,6,2,extremely
1903-7,"Bridget Jones Diary","{7} in the English language. I am referring to Pride and Prejudice, the story of the debonair Darcy and Elizabeth",155,1903,literary,7,2,literature
1903-8,"Bridget Jones Diary","whose mother was a total {8} and who was seeking",155,1903,embarrassed,8,2,embarrassment
1903-9,"Bridget Jones Diary","a good {9} . Well, This book is loosely based on that one,",155,1903,marry,9,2,marriage
1903-10,"Bridget Jones Diary","very loosely. So, you shouldn't expect to have a deep, {10} experience but if you are looking for something to while  away the hours on a long flight, Bridget Jones will do the  trick.",155,1903,mean,10,2,meaningful
1902-0,"Big Companies Go Green","The government has recently made an {0} that should please",154,1902,announce,0,2,announcement
1902-1,"Big Companies Go Green","environmentalists. After {1} were made against more than",154,1902,allege,1,2,allegations
1902-2,"Big Companies Go Green","one high-profile company regarding the releasing of raw {2} into rivers and the sea, ministers have promised to adopt a",154,1902,sewer,2,2,sewage
1902-3,"Big Companies Go Green","zero {3} approach to enforcing environmental protection",154,1902,tolerate,3,2,tolerance
1902-4,"Big Companies Go Green","rules. This has forced some companies to go on the {4}",154,1902,offend,4,2,offensive
1902-5,"Big Companies Go Green","and try publishing statistics designed to play down the {5} of the problems they have caused. <br/>One oil company has recently had a promotional campaign  in which they claim that they were actually responsible for",154,1902,extend,5,2,extent
1902-6,"Big Companies Go Green","rescuing a number of species from the brink of {6} in an area of tropical rainforest. But despite such publicity, it",154,1902,extinct,6,2,extinction
1902-7,"Big Companies Go Green","may be hard to {7} their negative public image after security",154,1902,come,7,2,overcome
1902-8,"Big Companies Go Green","personnel from the same company were filmed using {8}",154,1902,exceed,8,2,excessive
1902-9,"Big Companies Go Green","force to {9} restrain protesters outside one of their UK plants. Several news networks broadcast images of violent",154,1902,physics,9,2,physically
1902-10,"Big Companies Go Green","clashes after what appeared to be a perfectly {10} public protest.",154,1902,order,10,2,orderly
1901-0,"ID Cards in the UK","One of the most {0} issues in UK politics today concerns",153,1901,divide,0,2,divisive
1901-1,"ID Cards in the UK","the proposed {1} of an identity card system similar to",153,1901,adopt,1,2,adoption
1901-2,"ID Cards in the UK","that already in use in many {2} European Union countries.",153,1901,neighbour,2,2,neighbouring
1901-3,"ID Cards in the UK","The {3} of ID cards base their arguments partly on the",153,1901,propose,3,2,proponents
1901-4,"ID Cards in the UK","increased risk of {4} attacks and the current rise in the",153,1901,terror,4,2,terrorist
1901-5,"ID Cards in the UK","new crime of identity {5} . They point to many countries around the world who already have such schemes and  consider the storing of personal data by the state to be",153,1901,thief,5,2,theft
1901-6,"ID Cards in the UK","a(n) {6} part of living in the modern world.<br/>",153,1901,escape,6,2,inescapable
1901-7,"ID Cards in the UK","The opponents of their introduction talk of the {7} intrusion into people's lives and strongly object to the",153,1901,necessity,7,2,unnecessary
1901-8,"ID Cards in the UK","idea of personal information being stored in a vast {8} . They point to several recent cases of the government's  failure to keep people's private details safe and secure",153,1901,data,8,2,database
1901-9,"ID Cards in the UK","and worry about the {9} of such data falling into the hands of criminals. Other critics suggest that requiring  everybody to be registered in this way is an erosion of our",153,1901,likely,9,2,likelihood
1901-10,"ID Cards in the UK","civil {10} and say that such a system is incompatible with the idea that we live in a free society.",153,1901,liberal,10,2,liberties
1900-0,"Obsessed With Our Bodies","Recently a prominent {0} wrote in a respected journal that",152,1900,psychology,0,2,psychologist
1900-1,"Obsessed With Our Bodies","he is becoming {1} concerned about what he calls the",152,1900,increase,1,2,increasingly
1900-2,"Obsessed With Our Bodies","unhealthy {2} that we all seem to have with our bodies.<br/>",152,1900,obsessed,2,2,obsession
1900-3,"Obsessed With Our Bodies","He was referring in general to the {3} personal fitness and",152,1900,boom,3,2,booming
1900-4,"Obsessed With Our Bodies","cosmetic {4} industries who came in for some heavy",152,1900,surgeon,4,2,surgery
1900-5,"Obsessed With Our Bodies","criticism. But he also {5} the worrying trend among teens and even younger children which leaves many of them",152,1900,light,5,2,highlighted
1900-6,"Obsessed With Our Bodies","feeling {6} with their bodies. He also suggested that too much attention is being given in the media to the problem",152,1900,satisfy,6,2,dissatisfied
1900-7,"Obsessed With Our Bodies","of {7} , which he personally views as a far less harmful",152,1900,obese,7,2,obesity
1900-8,"Obsessed With Our Bodies","than the feeling of {8} it leaves many of us suffering from. <br/>",152,1900,adequate,8,2,inadequacy
1900-9,"Obsessed With Our Bodies","He went on to suggest that a far {9} approach would be",152,1900,health,9,2,healthier
1900-10,"Obsessed With Our Bodies","to encourage a general {10} of the diversity of the human form while still advising people on exercise and diet on  a more case-by-case basis.",152,1900,accept,10,2,acceptance
1899-0,"Our Man In Havana","For some reason that morning he had no {0} desire to",151,1899,burn,0,2,burning
1899-1,"Our Man In Havana","meet Dr Hasselbacher for his {1} daiquiri. There were times when Dr Hasselbacher was a little too careworn,  so he looked in at Sloppy Joe's instead of at the",151,1899,custom,1,2,customary
1899-2,"Our Man In Havana","Wonder Bar. No Havana {2} normally ever went to Sloppy Joe's because it was the rendezvous of tourists;",151,1899,reside,2,2,resident
1899-3,"Our Man In Havana","but tourists were sadly reduced {3} in number,",151,1899,now,3,2,nowadays
1899-4,"Our Man In Havana","for the President's regime was creaking {4}",151,1899,danger,4,2,dangerously
1899-5,"Our Man In Havana","towards its end. There had always been {5} goings on out of sight, in the intake rooms of the  secret police, which had not disturbed the tourists in the",151,1899,please,5,2,unpleasant
1899-6,"Our Man In Havana","Nacional and the Sevill-Biltmore in the {6} , but one tourist had been recently killed by a stray bullet while he",151,1899,slight,6,2,slightest
1899-7,"Our Man In Havana","was taking a photograph of a {7} beggar under a balcony near the presidential palace, and the death had",151,1899,picture,7,2,picturesque
1899-8,"Our Man In Havana","{8} the death-knell of the all-in tour 'including a trip to Varadero beach and the night-life of Havana'.  The victim's Leica had been smashed as well, and what",151,1899,sound,8,2,sounded
1899-9,"Our Man In Havana","had impressed his {9} more than anything was",151,1899,company,9,2,companion
1899-10,"Our Man In Havana","the {10} power of a single bullet.",151,1899,destroy,10,2,destructive
1898-0,"Don't Get Too Involved ","The job of being a journalist may look to an {0} like it",150,1898,out,0,2,ousider
1898-1,"Don't Get Too Involved ","is a {1} existence but in fact nothing could be further",150,1898,care,1,2,carefree
1898-2,"Don't Get Too Involved ","from the truth. Covering stories on such {2} issues as",150,1898,weigh,2,2,weighty
1898-3,"Don't Get Too Involved ","social {3} , juvenile delinquency, teenage rebellion and",150,1898,deprived,3,2,deprivation
1898-4,"Don't Get Too Involved ","people suffering from {4} illness requires a journalist to be sympathetic enough to effectively communicate other",150,1898,terminate,4,2,terminal
1898-5,"Don't Get Too Involved ","people's suffering while maintaining their {5} detachment.<br/>This latter skill is especially important when reporting on",150,1898,journal,5,2,journalistic
1898-6,"Don't Get Too Involved ","such a controversial matter as {6} abuse. A journalist must,",150,1898,solution,6,2,solvent
1898-7,"Don't Get Too Involved ","from the {7} put aside any preconceived notions about the topic and the people he may encounter. He must clear from  his mind any memories that in his younger days he was, or",150,1898,set,7,2,outset
1898-8,"Don't Get Too Involved ","was not quite {8} to certain recreational drugs himself, in",150,1898,part,8,2,partial
1898-9,"Don't Get Too Involved ","{9} for each interview he has to conduct. This is vital if",150,1898,ready,9,2,readiness
1898-10,"Don't Get Too Involved ","he is going to avoid {10} some crucial point that will make his report more insightful and more memorable than all the  others on that topic.",150,1898,look,10,2,overlooking
1897-0,"Business Interests","Ed Bullock clearly has a great {0} for making money. As",149,1897,apt,0,2,aptitude
1897-1,"Business Interests","the richest man in north-east Bristol, he's known for the {1} approach he has taken to amassing his huge fortune in a",149,1897,innovation,1,2,innovative
1897-2,"Business Interests","{2} short space of time. His first business venture, at the",149,1897,decision,2,2,decidedly
1897-3,"Business Interests","age of twenty was in engineering. With an {3} capital of",149,1897,initiate,3,2,initial
1897-4,"Business Interests","only fifty pounds, he built the {4} of a new kind garden tool, which was soon selling like hot cakes. <br/>",149,1897,type,4,2,prototype
1897-5,"Business Interests","He then moved into the highly {5} world of print and news",149,1897,competition,5,2,competitive
1897-6,"Business Interests","media, by buying a local newspaper whose monthly {6} ,",149,1897,circle,6,2,circulation
1897-7,"Business Interests","at the time of purchase, was {7} low. Within a few months he had turned the business around and showed that he was",149,1897,pity,7,2,pitifully
1897-8,"Business Interests","perfectly {8} of running large businesses as well as small",149,1897,able,8,2,capable
1897-9,"Business Interests","ones. He had also {9} attracted the attention of the local anti-corruption police who have carefully watched his  dealings ever since. <br/>",149,1897,wit,9,2,unwittingly
1897-10,"Business Interests","Sixteen years later, Bullock is currently the majority {10} in no less than twenty-eight separate firms and has a  personal fortune estimated at seventy million pounds.",149,1897,hold,10,2,shareholder
1896-0,"Working In A School","Working in a language school is a {0} interesting, though somewhat demanding profession. With so many people, both",148,1896,decide,0,2,decidedly
1896-1,"Working In A School","staff and students, around, you are exposed to a wide {1}",148,1896,vary,1,2,variety
1896-2,"Working In A School","of {2} types. Since students come and go with",148,1896,person,2,2,personality
1896-3,"Working In A School","regularity, it is mainly the {3} between staff members that",148,1896,relate,3,2,relationships
1896-4,"Working In A School","matter to other staff. The daily {4} in the staffroom can be a great source of support but it can just as easily",148,1896,act,4,2,interaction
1896-5,"Working In A School","accentuate {5} differences. Obviously, there is a lot of",148,1896,lying,5,2,underlying
1896-6,"Working In A School","self-censorship in any staffroom, a live and let live {6} .",148,1896,mental,6,2,mentality
1896-7,"Working In A School","Otherwise, the {7} types would simply take over and rule the",148,1896,assert,7,2,assertive
1896-8,"Working In A School","roost with a mixture of cruelty and {8} . And of course, teachers are generally an open-minded bunch. But every now  and then, somebody throws caution to the wind and provides",148,1896,descend,8,2,condescension
1896-9,"Working In A School","enough {9} to make the most passive colleague snap. It might be",148,1896,provoke,9,2,provocation
1896-10,"Working In A School","said that such confrontations are a(n) {10} side-effect of the working environment.",148,1896,avoid,10,2,unavoidable
1895-0,"Magna Carta","The Magna Carta of 1215 is one of the {0} legal documents",147,1895,early,0,2,earliest
1895-1,"Magna Carta","in the world. Before it came into {1} , an earlier document already existed from 1100, called the Charter of Liberties",147,1895,exist,1,2,existence
1895-2,"Magna Carta","A.D. This had been written for the {2} of the powers of",147,1895,limit,2,2,limitation
1895-3,"Magna Carta","the King. As its {3} , the Magna Carta went much further,",147,1895,succeed,3,2,successor
1895-4,"Magna Carta","being more of a {4} of the rights of all the king's subjects",147,1895,proclaim,4,2,proclamation
1895-5,"Magna Carta","and in particular, offered protection against unlawful {5} .<br/>The document, written in Latin dealt with everyday legal",147,1895,prison,5,2,imprisonment
1895-6,"Magna Carta","matters like the system of {6} , fair trade, anti-corruption",147,1895,tax,6,2,taxation
1895-7,"Magna Carta","and the mediaeval {7} system.<br/>",147,1895,judge,7,2,judicial
1895-8,"Magna Carta","The Magna Carta went on to become the {8} for the legal practices of England right up to the present day and was",147,1895,base,8,2,basis
1895-9,"Magna Carta","highly {9} on the drawing up of other nations' constitutional documents such as that of the USA. <br/>",147,1895,influence,9,2,influential
1895-10,"Magna Carta","The best-preserved, {10} copy of the Magna Carta can be seen today on display in Salisbury Cathedral in southern  England.",147,1895,survive,10,2,surviving
1894-0,"Rubik's Cube","In 1974, a new {0} puzzle was invented by Erno Rubik,",146,1894,mechanism,0,2,mechanical
1894-1,"Rubik's Cube","a Hungarian professor of {1} . The puzzle consisted of",146,1894,architect,1,2,architecture
1894-2,"Rubik's Cube","twenty-six {2} cubes fitted together to make a larger",146,1894,mini,2,2,miniature
1894-3,"Rubik's Cube","cube of which all six faces can be rotated {3} of each",146,1894,depend,3,2,independently
1894-4,"Rubik's Cube","other. In its initial {4} all six faces of the cube were",146,1894,figure,4,2,configuration
1894-5,"Rubik's Cube","{5} one of six colours, blue, green, red, yellow, orange and white. But with a just few twists the faces could soon",146,1894,uniform,5,2,uniformly
1894-6,"Rubik's Cube","be {6} into a jumbled combination of all six colours.<br/>",146,1894,random,6,2,randomised
1894-7,"Rubik's Cube","What made the puzzle {7} difficult to subsequently",146,1894,frustration,7,2,frustratingly
1894-8,"Rubik's Cube","return to its initial state was the {8} number of possible",146,1894,stagger,8,2,staggering
1894-9,"Rubik's Cube","combinations of coloured squares, which is in {9} of one thousand million, million. <br/>The Rubik's Cube was patented and sold by the Ideal Toy  Company of Germany and has been so successful for them",146,1894,exceed,9,2,excess
1894-10,"Rubik's Cube","that is widely acknowledged as being the {10} best-selling toy of all time.",146,1894,dispute,10,2,undisputed
1893-0,"A Balloon Expedition","In 1897 three Swedes set out from Svalbard on an {0} to",145,1893,expedite,0,2,expedition
1893-1,"A Balloon Expedition","the North Pole by hot air balloon under the {1} of S.A.",145,1893,lead,1,2,leadership
1893-2,"A Balloon Expedition","Andree. Although all three men were experienced {2} , they",145,1893,balloon,2,2,balloonists
1893-3,"A Balloon Expedition","continued to have {3} faith in the effectiveness of their",145,1893,question,3,2,unquestioning
1893-4,"A Balloon Expedition","equipment despite considerable evidence of the {4} of the balloon's steering system which Andree had designed",145,1893,effect,4,2,ineffectiveness
1893-5,"A Balloon Expedition","himself. Also, the polar balloon had not {5} the normal testing procedure for hydrogen balloons but none of",145,1893,go,5,2,undergone
1893-6,"A Balloon Expedition","the three men, would in any way {6} the serious",145,1893,know,6,2,acknowledge
1893-7,"A Balloon Expedition","{7} that this had for the likely fate of their voyage.<br/>Soon after their departure on July 7th, it was noticed",145,1893,imply,7,2,implications
1893-8,"A Balloon Expedition","that {8} amounts of hydrogen were escaping from the balloon",145,1893,consider,8,2,considerable
1893-9,"A Balloon Expedition","but the three men were unconcerned by the amount of {9} . Unfortunately, as the balloon gained altitude, this loss",145,1893,leak,9,2,leakage
1893-10,"A Balloon Expedition","of gas soon {10} and so, after a brief flight of ten hours and twenty-nine minutes the balloon crash-landed on pack-ice  where the three explorers attempted to continue their  journey on foot. Their bodies were eventually recovered  from the ice thirty-three years later.",145,1893,quick,10,2,quickened
1892-0,"London Eye","In 1999, as part of the UK's {0} of the millennium, a",144,1892,celebrate,0,2,celebration
1892-1,"London Eye","huge rotating wheel, {1} of carrying groups of passengers",144,1892,able,1,2,capable
1892-2,"London Eye","to a great {2} was built in the centre of London, a short",144,1892,high,2,2,height
1892-3,"London Eye","{3} from the River Thames and the Houses or Parliament. The construction of The London Eye was originally carried",144,1892,distant,3,2,distance
1892-4,"London Eye","out through a {4} deal with the airline, British Airways although the wheel is now owned and operated by The  London Eye Company. <br/>",144,1892,sponsor,4,2,sponsorship
1892-5,"London Eye","A typical trip round the wheel, {5} thirty minutes, gives",144,1892,last,5,2,lasting
1892-6,"London Eye","tourists {6} views of the surrounding city and its many",144,1892,breath,6,2,breathtaking
1892-7,"London Eye","well-known landmarks, {7} Buckingham Palace, the Palace of Westminster and Trafalgar Square. <br/>",144,1892,include,7,2,including
1892-8,"London Eye","In its eight years of {8} operation, The London Eye has",144,1892,continue,8,2,continuous
1892-9,"London Eye","become the most popular {9} tourist attraction in the UK and it is easy to see why. At only a little over fifteen",144,1892,pay,9,2,paid
1892-10,"London Eye","pounds for a ticket, it certainly offers {10} value for money.",144,1892,beat,10,2,unbeatable
1891-0,"The Eden Project","The UK is not a {0} country but for the last ten years,",143,1891,tropics,0,2,tropical
1891-1,"The Eden Project","UK citizens and visitors have had the exciting {1} of",143,1891,possible,1,2,possibility
1891-2,"The Eden Project","experiencing a real rainforest without the need for {2}",143,1891,cost,2,2,costly
1891-3,"The Eden Project","and {3} damaging air transport, at a place called The Eden Project. <br/>",143,1891,environment,3,2,environmentally
1891-4,"The Eden Project","The Eden Project is the world's {4} greenhouse but it",143,1891,large,4,2,largest
1891-5,"The Eden Project","is also much more than that. It is, in fact, a {5} of three",143,1891,collect,5,2,collection
1891-6,"The Eden Project","climate zones in one visitor {6} . The most famous of these is known as the 'Tropical Biome' but there is also",143,1891,attract,6,2,attraction
1891-7,"The Eden Project","a 'Mediterranean Biome' and the land {7} the greenhouse structures is known as the 'Outdoor Biome'. The latest",143,1891,surround,7,2,surrounding
1891-8,"The Eden Project","{8} to the site is an educational centre, purpose-built",143,1891,add,8,2,addition
1891-9,"The Eden Project","to help promote environmental {9} among the many visitors. <br/>One of the best things about The Eden Centre is  that it is a day out in the English countryside that",143,1891,aware,9,2,awareness
1891-10,"The Eden Project","can never be completely ruined by the {10} UK weather and that is a rare thing.",143,1891,predict,10,2,unpredictable
1889-0,"CCTV","{0} to the UK are often quite surprised at just how",141,1889,visit,0,2,visitors
1889-1,"CCTV","many {1} cameras there are. Some of these cameras",141,1889,secure,1,2,security
1889-2,"CCTV","are {2} owned and used to watch over shops, offices",141,1889,private,2,2,privately
1889-3,"CCTV","and {3} buildings when they are not in use. But the",141,1889,industry,3,2,industrial
1889-4,"CCTV","{4} of CCTV cameras, as they are called are placed in",141,1889,major,4,2,majority
1889-5,"CCTV","city centres and public buildings to {5} the safety of the general public. Local governments and the police share the",141,1889,sure,5,2,ensure
1889-6,"CCTV","{6} for the camera's operation and maintenance and for paying somebody to sit and watch at the other end. <br/>",141,1889,responsible,6,2,responsibility
1889-7,"CCTV","What is even more surprising is how {7} these",141,1889,effect,7,2,ineffective
1889-8,"CCTV","cameras are at preventing {8} activity. According to",141,1889,crime,8,2,criminal
1889-9,"CCTV","one leading {9} , only three percent of crimes are solved using evidence from CCTV recordings. Many  people now think that the government could spend the",141,1889,politics,9,2,politician
1889-10,"CCTV","same money more {10} on having a few extra police officers on the street.",141,1889,use,10,2,usefully
1890-0,"Cockroaches","Cockroaches are a form of insect pest, {0} found in",142,1890,common,0,2,commonly
1890-1,"Cockroaches","people's homes, where they generally eat {1} waste and",142,1890,house,1,2,household
1890-2,"Cockroaches","food products. Their bodies give off an {2} smell and some",142,1890,offend,2,2,offensive
1890-3,"Cockroaches","people have an {3} reaction to them. They also sometimes",142,1890,allergy,3,2,allergic
1890-4,"Cockroaches","carry bacteria on their bodies that are {4} deadly to humans",142,1890,potential,4,2,potentially
1890-5,"Cockroaches","But possibly the most {5} thing about them is how difficult they are to get rid of. <br/>",142,1890,please,5,2,unpleasant
1890-6,"Cockroaches","The cockroach is one of nature's most talented {6} and",142,1890,survive,6,2,survivors
1890-7,"Cockroaches","can live for more than one month on {7} food and water. They are also resistant to many kinds of poison and are",142,1890,limit,7,2,limited
1890-8,"Cockroaches","even {8} by large doses of radiation, strong enough to kill most other living things. <br/>",142,1890,affect,8,2,unaffected
1890-9,"Cockroaches","Probably the best {9} to dealing with cockroaches is to trap them in specially constructed 'cockroach hotels'",142,1890,solve,9,2,solution
1890-10,"Cockroaches","whose inside walls are {10} with a strong, sticky glue.",142,1890,coat,10,2,coated
1888-0,"Superheroes","A superhero can be defined as a person with {0}",140,1888,ordinary,0,2,extraordinary
1888-1,"Superheroes","abilities of some kind. In some cases the hero is a {1}",140,1888,science,1,2,scientist
1888-2,"Superheroes","who has {2} designed special equipment that gives them their powers. In other cases, their powers are the",140,1888,intend,2,2,intentionally
1888-3,"Superheroes","result of some kind of a(n) {3} accident or an experiment",140,1888,fortune,3,2,unfortunate
1888-4,"Superheroes","that went {4} wrong. Nearly all superheroes also suffer",140,1888,tragedy,4,2,tragically
1888-5,"Superheroes","from a fatal {5} which often has the effect of cancelling their powers. <br/>",140,1888,weak,5,2,weakness
1888-6,"Superheroes","In the last twenty years there has been an almost {6}",140,1888,end,6,2,endless
1888-7,"Superheroes","{7} line of movies and TV series about super heroes.",140,1888,produce,7,2,production
1888-8,"Superheroes","Other themes and genres like westerns have lost {8}",140,1888,popular,8,2,popularity
1888-9,"Superheroes","but each superhero movie seems to be more {9} than",140,1888,succeed,9,2,successful
1888-10,"Superheroes","comes from being able to {10} about having similar abilities.",140,1888,fantasy,10,2,fantasise
1887-0,"Christmas Shopping","Even in recent times of financial {0} , the two months",139,1887,certain,0,2,uncertainty
1887-1,"Christmas Shopping","{1} up to Christmas are of great importance to businesses,",139,1887,lead,1,2,leading
1887-2,"Christmas Shopping","in particular, supermarkets and other {2} in",139,1887,retail,2,2,retailers
1887-3,"Christmas Shopping","the UK. For many shops, their {3} survival depends on having a good Christmas each year. And when large",139,1887,continue,3,2,continuing
1887-4,"Christmas Shopping","Christmas profits fail to {4} it can often result",139,1887,material,4,2,materialise
1887-5,"Christmas Shopping","in the business facing {5} soon after the New Year.<br/>",139,1887,close,5,2,closure
1887-6,"Christmas Shopping","One more {6} result of a long lead-up to Christmas is",139,1887,fortune,6,2,unfortunate
1887-7,"Christmas Shopping","that over the years, the typical British {7} has",139,1887,shop,7,2,shopper
1887-8,"Christmas Shopping","become {8} immune to the effects of large",139,1887,increase,8,2,increasingly
1887-9,"Christmas Shopping","amounts of {9} marketing. This, in turn, has meant that in order to make any impact on customer's spending,",139,1887,festival,9,2,festive
1887-10,"Christmas Shopping","retail {10} now need to make their Christmas displays extremely prominent and eye-catching.",139,1887,out,10,2,outlets
